{"browsers":["Opera/9.80 (J2ME/MIDP; Opera Mini/8.0.35626/37.8918; U; en) Presto/2.12.423 Version/12.16","Mozilla/5.0 (iPod; CPU iPhone OS 8_4 like Mac OS X) AppleWebKit/600.1.4 (KHTML, like Gecko) CriOS/44.0.2403.67 Mobile/12H143 Safari/600.1.4","Mozilla/5.0 (MeeGo; NokiaN9) AppleWebKit/534.13 (KHTML, like Gecko) NokiaBrowser/8.5.0 Mobile Safari/534.13","Offline Explorer/2.5"],"company":"Eidel","country":"Uruguay","email":"mAlexander@Skimia.edu","job":"Graphic Designer","name":"Billy Kim","phone":"820-97-39"}
{"browsers":["Mozilla/5.0 (iPhone; U; CPU iPhone OS 4_2_1 like Mac OS X; da-dk) AppleWebKit/533.17.9 (KHTML, like Gecko) Version/5.0.2 Mobile/8C148 Safari/6533.18.5","CSSCheck/1.2.2","Mozilla/5.0 (Windows NT 6.0; WOW64; rv:40.0) Gecko/20100101 Firefox/40.0","Mozilla/5.0 (Macintosh; Intel Mac OS X 10_9_5) AppleWebKit/537.78.1 (KHTML like Gecko) Version/7.0.6 Safari/537.78.1"],"company":"Zoomlounge","country":"Saint Martin","email":"4Baker@Skinder.name","job":"Recruiter","name":"Louise Peters","phone":"509-67-63"}
{"browsers":["Mozilla/5.0 (X11; U; Linux i686; en-US; rv:1.9.0.8) Gecko Galeon/2.0.6 (Ubuntu 2.0.6-2)","Opera/9.80 (Windows NT 6.1; U; es-ES) Presto/2.9.181 Version/12.00","Mozilla/5.0 (Linux; U; Android 1.5; de-de; Galaxy Build/CUPCAKE) AppleWebKit/528.5  (KHTML, like Gecko) Version/3.1.2 Mobile Safari/525.20.1","Mozilla/5.0 (Windows NT 6.0) AppleWebKit/537.36 (KHTML, like Gecko) Chrome/45.0.2454.93 Safari/537.36"],"company":"Quamba","country":"Mongolia","email":"sPatterson@Linkbuzz.gov","job":"Teacher","name":"Doris Wheeler","phone":"297-69-59"}
{"browsers":["Opera/9.80 (Windows NT 6.1; WOW64) Presto/2.12.388 Version/12.16","Mozilla/5.0 (Windows NT 6.0) AppleWebKit/537.36 (KHTML, like Gecko) Chrome/45.0.2454.93 Safari/537.36","Mozilla/5.0 (Windows NT 6.1; WOW64) AppleWebKit/535.8 (KHTML, like Gecko) Beamrise/17.2.0.9 Chrome/17.0.939.0 Safari/535.8","Mozilla/5.0 (Windows; U; Windows NT 6.0 x64; en-US; rv:1.9pre) Gecko/2008072421 Minefield/3.0.2pre"],"company":"Twiyo","country":"New Caledonia","email":"dicta@Browsezoom.edu","job":"Assistant Professor","name":"Catherine Mendoza","phone":"8-524-756-66-67"}
{"browsers":["Mozilla/5.0 (Macintosh; U; Intel Mac OS X 10_5_6; en-US) AppleWebKit/528.16 (KHTML, like Gecko, Safari/528.16) OmniWeb/v622.8.0","Mozilla/5.0 (Macintosh; Intel Mac OS X 10.6; rv:2.0b6pre) Gecko/20100907 Firefox/4.0b6pre Camino/2.2a1pre","Mozilla/5.0 (iPhone; U; CPU iPhone OS 4_0 like Mac OS X; en-us) AppleWebKit/532.9 (KHTML, like Gecko) Version/4.0.5 Mobile/8A293 Safari/531.22.7","Mozilla/5.0 (Windows; U; Windows NT 5.1; tr; rv:1.9.2.8) Gecko/20100722 Firefox/3.6.8 ( .NET CLR 3.5.30729; .NET4.0E)"],"company":"Mydo","country":"Åland","email":"tempora_est_eius@Blogtags.org","job":"Office Assistant #{N}","name":"Roy Ferguson","phone":"583-79-19"}
{"browsers":["BlackBerry9700/5.0.0.351 Profile/MIDP-2.1 Configuration/CLDC-1.1 VendorID/123","Mozilla/5.0 (Symbian/3; Series60/5.2 NokiaX7-00/021.004; Profile/MIDP-2.1 Configuration/CLDC-1.1 ) AppleWebKit/533.4 (KHTML, like Gecko) NokiaBrowser/7.3.1.21 Mobile Safari/533.4 3gpp-gba","Mozilla/5.0 (Linux; Android 4.4.4; Nexus 7 Build/KTU84P) AppleWebKit/537.36 (KHTML like Gecko) Chrome/36.0.1985.135 Safari/537.36","Uzbl (Webkit 1.3) (Linux i686 [i686])"],"company":"Youtags","country":"Liechtenstein","email":"BrandonRivera@Jetpulse.gov","job":"Help Desk Operator","name":"Alice Burke","phone":"7-413-163-84-07"}
{"browsers":["Opera/9.80 (Android; Opera Mini/7.5.33361/31.1543; U; en) Presto/2.8.119 Version/11.1010","Mozilla/5.0 (OS/2; Warp 4.5; rv:10.0.12) Gecko/20130108 Firefox/10.0.12 SeaMonkey/2.7.2","Opera/9.80 (Windows NT 6.1; U; en) Presto/2.7.62 Version/11.01","Mozilla/4.0 (compatible; MSIE 7.0; Windows NT 6.0; Trident/5.0)"],"company":"Riffpedia","country":"French Polynesia","email":"KellySchmidt@Jabbertype.name","job":"Research Nurse","name":"Maria Nguyen","phone":"038-12-08"}
{"browsers":["BlackBerry9530/4.7.0.167 Profile/MIDP-2.0 Configuration/CLDC-1.1 VendorID/102 UP.Link/6.3.1.20.0","Mozilla/5.0 (X11; Ubuntu; Linux x86_64; rv:14.0) Gecko/20100101 Firefox/14.0.1","SuperBot/4.4.0.60 (Windows XP)","Opera/9.80 (Android 4.0.4; Linux; Opera Mobi/ADR-1205181138; U; pl) Presto/2.10.254 Version/12.00"],"company":"Quinu","country":"Tuvalu","email":"qui_eius@Divanoodle.mil","job":"Research Assistant #{N}","name":"Shirley Austin","phone":"170-10-93"}
{"browsers":["Mozilla/5.0 (Symbian/3; Series60/5.2 NokiaN8-00/014.002; Profile/MIDP-2.1 Configuration/CLDC-1.1; en-us) AppleWebKit/525 (KHTML, like Gecko) Version/3.0 BrowserNG/7.2.6.4 3gpp-gba","Mozilla/5.0 (Windows NT 6.3; Trident/7.0; rv:11.0) like Gecko","Googlebot/2.1 ( http://www.googlebot.com/bot.html)","Mozilla/5.0 (X11; Linux x86_64) AppleWebKit/537.4 (KHTML like Gecko) Chrome/22.0.1229.56 Safari/537.4"],"company":"Dabtype","country":"Zambia","email":"uHart@Dynabox.edu","job":"Community Outreach Specialist","name":"Jesse Daniels","phone":"6-364-101-53-50"}
{"browsers":["Mozilla/5.0 (Windows NT 6.1; WOW64; rv:7.0.1) Gecko/20100101 Firefox/7.0.1","Mozilla/5.0 (compatible; MSIE 9.0; Windows NT 6.2; Trident/5.0)","Mozilla/5.0 (Windows NT 6.1) AppleWebKit/537.71 (KHTML like Gecko) WebVideo/1.0.1.10 Version/7.0 Safari/537.71","Mozilla/5.0 (compatible; Yahoo! Slurp China; http://misc.yahoo.com.cn/help.html)"],"company":"Fanoodle","country":"Malaysia","email":"JosephLittle@Realmix.biz","job":"Professor","name":"Albert Hudson","phone":"759-65-44"}
{"browsers":["Mozilla/5.0 (Windows NT 6.1; Win64; x64; rv:2.0.1) Gecko/20100101 Firefox/4.0.1","Mozilla/5.0 (iPad; U; CPU iPad OS 5_0_1 like Mac OS X; en-us) AppleWebKit/535.1+ (KHTML like Gecko) Version/7.2.0.0 Safari/6533.18.5","Opera/9.80 (J2ME/MIDP; Opera Mini/5.0.16823/1428; U; en) Presto/2.2.0","Microsoft URL Control - 6.00.8862"],"company":"Dabjam","country":"Serbia","email":"provident_vel_reiciendis@Photobug.org","job":"Accounting Assistant #{N}","name":"Eugene Moore","phone":"8-536-083-72-19"}
{"browsers":["SonyEricssonW995/R1EA Profile/MIDP-2.1 Configuration/CLDC-1.1 UNTRUSTED/1.0","Download Demon/3.5.0.11","Mozilla/5.0 (SymbianOS/9.1; U; de) AppleWebKit/413 (KHTML, like Gecko) Safari/413","Mozilla/5.0 (iPad; CPU OS 6_0 like Mac OS X) AppleWebKit/536.26 (KHTML, like Gecko) Version/6.0 Mobile/10A5355d Safari/8536.25"],"company":"Livetube","country":"Niue","email":"facilis_saepe_est@Podcat.org","job":"Staff Scientist","name":"Cheryl Lee","phone":"502-88-73"}
{"browsers":["Mozilla/5.0 (Linux; Android 4.4.2; SM-T230NU Build/KOT49H) AppleWebKit/537.36 (KHTML, like Gecko) Chrome/51.0.2704.81 Safari/537.36","Mozilla/5.0 (Linux; U; Android 2.2; en-ca; GT-P1000M Build/FROYO) AppleWebKit/533.1 (KHTML, like Gecko) Version/4.0 Mobile Safari/533.1","BlackBerry8320/4.2.2 Profile/MIDP-2.0 Configuration/CLDC-1.1 VendorID/100","MOTORIZR-Z8/46.00.00 Mozilla/4.0 (compatible; MSIE 6.0; Symbian OS; 356) Opera 8.65 [it] UP.Link/6.3.0.0.0"],"company":"Yacero","country":"Vatican City State (Holy See)","email":"0Howell@Jayo.name","job":"Chief Design Engineer","name":"George James","phone":"093-05-99"}
{"browsers":["Mozilla/5.0 (Mobile; Windows Phone 8.1; Android 4.0; ARM; Trident/7.0; Touch; rv:11.0; IEMobile/11.0; NOKIA; Lumia 929) like iPhone OS 7_0_3 Mac OS X AppleWebKit/537 (KHTML, like Gecko) Mobile Safari/537","Mozilla/5.0 (X11; Linux i686; rv:12.0) Gecko/20100101 Firefox/12.0","POLARIS/6.01 (BREW 3.1.5; U; en-us; LG; LX265; POLARIS/6.01/WAP) MMP/2.0 profile/MIDP-2.1 Configuration/CLDC-1.1","Mozilla/4.0 (compatible; MSIE 5.0; Series80/2.0 Nokia9500/4.51 Profile/MIDP-2.0 Configuration/CLDC-1.1)"],"company":"Pixope","country":"Kyrgyzstan","email":"AnneTorres@Edgeify.com","job":"Sales Associate","name":"Alice Pierce","phone":"576-20-94"}
{"browsers":["Googlebot-Image/1.0","Mozilla/4.0 (compatible; MSIE 6.0; Windows CE; IEMobile 6.12; Microsoft ZuneHD 4.3)","Mozilla/5.0 (Windows; U; Windows NT 6.0 x64; en-US; rv:1.9pre) Gecko/2008072421 Minefield/3.0.2pre","Mozilla/5.0 (X11; Linux i686; rv:25.0) Gecko/20100101 Firefox/25.0"],"company":"Voonyx","country":"Congo, Republic of","email":"et_aut_quam@Feedmix.mil","job":"Teacher","name":"Roger Fields","phone":"0-801-740-88-75"}
{"browsers":["Mozilla/5.0 (Linux; U; Android 1.5; de-de; Galaxy Build/CUPCAKE) AppleWebKit/528.5  (KHTML, like Gecko) Version/3.1.2 Mobile Safari/525.20.1","Mozilla/5.0 (Linux; U; Android 2.1-update1; de-de; HTC Desire 1.19.161.5 Build/ERE27) AppleWebKit/530.17 (KHTML, like Gecko) Version/4.0 Mobile Safari/530.17","Mozilla/5.0 (Windows NT 10.0; WOW64) AppleWebKit/537.36 (KHTML, like Gecko) Chrome/51.0.2704.103 Safari/537.36","Mozilla/5.0 (X11; FreeBSD amd64) AppleWebKit/537.4 (KHTML like Gecko) Chrome/22.0.1229.79 Safari/537.4"],"company":"Thoughtbridge","country":"Grenada","email":"hRiley@Topicblab.name","job":"Dental Hygienist","name":"Antonio Schmidt","phone":"6-520-564-60-18"}
{"browsers":["Mozilla/5.0 (X11; Linux i686) AppleWebKit/535.1 (KHTML, like Gecko) Ubuntu/11.04 Chromium/14.0.825.0 Chrome/14.0.825.0 Safari/535.1","Mozilla/5.0 (iPad; CPU OS 9_3_2 like Mac OS X) AppleWebKit/601.1.46 (KHTML, like Gecko) Version/9.0 Mobile/13F69 Safari/601.1","Mozilla/5.0 (Linux; Android 5.0.1; SCH-R970 Build/LRX22C) AppleWebKit/537.36 (KHTML, like Gecko) Chrome/45.0.2454.84 Mobile Safari/537.36","Mozilla/5.0 (Linux; U; Android 2.3.3; en-us ; LS670 Build/GRI40) AppleWebKit/533.1 (KHTML, like Gecko) Version/4.0 Mobile Safari/533.1/UCBrowser/8.6.1.262/145/355"],"company":"Skyndu","country":"Mexico","email":"5Long@Latz.mil","job":"Programmer Analyst #{N}","name":"Craig Gordon","phone":"0-033-369-66-89"}
{"browsers":["Mozilla/5.0 (Windows NT 10.0; WOW64) AppleWebKit/537.36 (KHTML, like Gecko) Chrome/51.0.2704.103 Safari/537.36","Mozilla/5.0 (Windows NT 10.0; ARM; Lumia 950 Dual SIM) AppleWebKit/537.36 (KHTML, like Gecko) Chrome/51.0.2704.79 Safari/537.36 Edge/14.14393","Mozilla/5.0 (iPad; U; CPU iPad OS 5_0_1 like Mac OS X; en-us) AppleWebKit/535.1+ (KHTML like Gecko) Version/7.2.0.0 Safari/6533.18.5","Mozilla/5.0 (Windows NT 6.1; WOW64; rv:6.0a2) Gecko/20110622 Firefox/6.0a2"],"company":"Devshare","country":"Guinea-Bissau","email":"IreneCollins@Topiczoom.gov","job":"Account Coordinator","name":"Rose Harper","phone":"5-700-202-51-19"}
{"browsers":["Mozilla/5.0 (Windows NT 5.1; rv:31.0) Gecko/20100101 Firefox/31.0","Mozilla/5.0 (X11; Linux i686) AppleWebKit/537.36 (KHTML, like Gecko) Ubuntu Chromium/51.0.2704.79 Chrome/51.0.2704.79 Safari/537.36","Mozilla/5.0 (compatible; Konqueror/3.5; Linux; en_US) KHTML/3.5.6 (like Gecko) (Kubuntu)","UCWEB/8.8 (SymbianOS/9.2; U; en-US; NokiaE63) AppleWebKit/534.1 UCBrowser/8.8.0.245 Mobile"],"company":"Devpoint","country":"Morocco","email":"4Scott@Tazz.com","job":"Physical Therapy Assistant","name":"Russell Roberts","phone":"627-73-83"}
{"browsers":["Opera/9.80 (X11; Linux x86_64; U; pl) Presto/2.7.62 Version/11.00","Links (2.1pre15; FreeBSD 5.3-RELEASE i386; 196x84)","Mozilla/5.0 (X11; Linux i686; rv:40.0) Gecko/20100101 Firefox/40.0","Mozilla/5.0 (Windows NT 6.0) AppleWebKit/537.36 (KHTML, like Gecko) Chrome/45.0.2454.93 Safari/537.36"],"company":"Devshare","country":"Turks and Caicos Islands","email":"SaraHunt@Quinu.info","job":"Nurse","name":"Sandra Harper","phone":"8-383-948-01-68"}
