{"browsers":["Mozilla/5.0 (Linux; U; Android 1.5; de-ch; HTC Hero Build/CUPCAKE) AppleWebKit/528.5  (KHTML, like Gecko) Version/3.1.2 Mobile Safari/525.20.1","Mozilla/5.0 (Linux; Android 4.0.4; BNTV400 Build/IMM76L) AppleWebKit/537.36 (KHTML, like Gecko) Chrome/42.0.2311.111 Safari/537.36","Mozilla/5.0 (Macintosh; Intel Mac OS X 10.6; rv:2.0.1) Gecko/20100101 Firefox/4.0.1","Mozilla/5.0 (SymbianOS/9.1; U; en-us) AppleWebKit/413 (KHTML, like Gecko) Safari/413 es50"],"company":"Babbleblab","country":"Macau","email":"RussellPorter@Twiyo.gov","job":"VP Marketing","name":"Peter Carroll","phone":"4-825-766-30-69"}
{"browsers":["Nokia6230i/2.0 (03.80) Profile/MIDP-2.0 Configuration/CLDC-1.1","Mozilla/5.0 (Windows NT 10.0; WOW64; rv:47.0) Gecko/20100101 Firefox/47.0","Mozilla/5.0 (iPod touch; CPU iPhone OS 7_1 like Mac OS X) AppleWebKit/537.51.2 (KHTML like Gecko) Version/7.0 Mobile/11D167 Safari/123E71C","Mozilla/5.0 (Android; Linux armv7l; rv:10.0.1) Gecko/20100101 Firefox/10.0.1 Fennec/10.0.1"],"company":"Devpulse","country":"US Minor Outlying Islands","email":"zNelson@Dazzlesphere.org","job":"Community Outreach Specialist","name":"Tammy Perry","phone":"868-46-83"}
{"browsers":["Mozilla/5.0 (Linux; U; Android 4.4.2; en-us; GT-P5210 Build/KOT49H) AppleWebKit/534.30 (KHTML, like Gecko) Version/4.0 Safari/534.30","Mozilla/5.0 (Windows; U; Win98; en-US; rv:1.4) Gecko Netscape/7.1 (ax)","Mozilla/5.0 (X11; Linux i686) AppleWebKit/538.1 (KHTML, like Gecko) QupZilla/1.8.6 Safari/538.1","Mozilla/5.0 (X11; FreeBSD amd64) AppleWebKit/537.4 (KHTML like Gecko) Chrome/22.0.1229.79 Safari/537.4"],"company":"Blogpad","country":"Serbia","email":"MarieGomez@Jabbertype.edu","job":"Senior Developer","name":"Russell Howell","phone":"8-392-288-00-47"}
{"browsers":["Mozilla/5.0 (Macintosh; Intel Mac OS X 10.6; rv:5.0) Gecko/20100101 Firefox/5.0","Mozilla/5.0 (SymbianOS/9.1; U; de) AppleWebKit/413 (KHTML, like Gecko) Safari/413","Mozilla/5.0 (X11; Linux i686; rv:32.0) Gecko/20100101 Firefox/32.0","P3P Validator"],"company":"Photobean","country":"Mongolia","email":"SamuelCook@Devify.mil","job":"Office Assistant #{N}","name":"Brenda Wilson","phone":"961-81-68"}
{"browsers":["Nokia6630/1.0 (2.39.15) SymbianOS/8.0 Series60/2.6 Profile/MIDP-2.0 Configuration/CLDC-1.1","Mozilla/5.0 (Macintosh; U; Intel Mac OS X 10_5_7;en-us) AppleWebKit/530.17 (KHTML, like Gecko) Version/4.0 Safari/530.17","Mozilla/5.0 (X11; Linux i686; rv:10.0.1) Gecko/20100101 Firefox/10.0.1 SeaMonkey/2.7.1","Mozilla/5.0 (compatible; MSIE 10.0; Windows Phone 8.0; Trident/6.0; IEMobile/10.0; ARM; Touch; NOKIA; Lumia 920)"],"company":"Pixoboo","country":"Mexico","email":"aut_dolorum_nihil@Topdrive.name","job":"Media Manager #{N}","name":"Ruby Cook","phone":"5-230-794-75-95"}
{"browsers":["Mozilla/5.0 (X11; Linux i686) AppleWebKit/535.2 (KHTML, like Gecko) Ubuntu/11.10 Chromium/15.0.874.120 Chrome/15.0.874.120 Safari/535.2","Mozilla/5.0 (SymbianOS 9.4; Series60/5.0 NokiaN97-1/10.0.012; Profile/MIDP-2.1 Configuration/CLDC-1.1; en-us) AppleWebKit/525 (KHTML, like Gecko) WicKed/7.1.12344","Mozilla/5.0 (Macintosh; U; PPC Mac OS X 10.5; en-US; rv:1.9.0.3) Gecko/2008092414 Firefox/3.0.3","Mozilla/5.0 (Macintosh; Intel Mac OS X 10_10_5) AppleWebKit/600.8.9 (KHTML, like Gecko) Version/8.0.8 Safari/600.8.9"],"company":"Talane","country":"Åland","email":"JamesCunningham@Brainbox.org","job":"Recruiter","name":"Stephen Rogers","phone":"8-822-600-21-61"}
{"browsers":["SEC-SGHX210/1.0 UP.Link/6.3.1.13.0","Mozilla/5.0 (Windows NT 6.0; rv:14.0) Gecko/20100101 Firefox/14.0.1","Mozilla/5.0 (Windows; U; Windows NT 6.1; en-GB; rv:1.9.1.17) Gecko/20110123 (like Firefox/3.x) SeaMonkey/2.0.12","Mozilla/5.0 (X11; CrOS x86_64 5841.83.0) AppleWebKit/537.36 (KHTML like Gecko) Chrome/36.0.1985.138 Safari/537.36"],"company":"Skinder","country":"Lithuania","email":"qDiaz@Fivespan.com","job":"Software Engineer #{N}","name":"Diana Hart","phone":"278-59-50"}
{"browsers":["Mozilla/2.02E (Win95; U)","Mozilla/5.0 (SymbianOS/9.2; U; Series60/3.1 Nokia6120c/3.70; Profile/MIDP-2.0 Configuration/CLDC-1.1) AppleWebKit/413 (KHTML, like Gecko) Safari/413","SAMSUNG-SGH-A867/A867UCHJ3 SHP/VPP/R5 NetFront/35 SMM-MMS/1.2.0 profile/MIDP-2.0 configuration/CLDC-1.1 UP.Link/6.3.0.0.0","Mozilla/5.0 (Linux; Android 6.0; LG-D850 Build/MRA58K) AppleWebKit/537.36 (KHTML, like Gecko) Chrome/53.0.2785.97 Mobile Safari/537.36"],"company":"Browsedrive","country":"Jordan","email":"KimberlyRamirez@Yodoo.biz","job":"Geologist #{N}","name":"Frank Reed","phone":"148-17-06"}
{"browsers":["Mozilla/5.0 (Linux; U; Android 1.5; de-ch; HTC Hero Build/CUPCAKE) AppleWebKit/528.5  (KHTML, like Gecko) Version/3.1.2 Mobile Safari/525.20.1","Mozilla/5.0 (Linux; U; Android 4.0.3; en-us; KFTT Build/IML74K) AppleWebKit/535.19 (KHTML, like Gecko) Silk/2.1 Mobile Safari/535.19 Silk-Accelerated=true","Mozilla/5.0 (X11; Linux i686; rv:10.0.1) Gecko/20100101 Firefox/10.0.1 SeaMonkey/2.7.1","Mozilla/5.0 (MSIE 9.0; Windows NT 10.0; Win64; x64) AppleWebKit/537.36 (KHTML, like Gecko) Chrome/51.0.2704.79 Safari/537.36 Edge/14.14931"],"company":"Camido","country":"Norway","email":"suscipit_consequatur_qui@Kamba.net","job":"Environmental Tech","name":"Linda Rogers","phone":"772-07-95"}
{"browsers":["Mozilla/5.0 (Macintosh; Intel Mac OS X 10_10_2) AppleWebKit/537.36 (KHTML, like Gecko) Chrome/41.0.2272.118 Safari/537.36 OPR/28.0.1750.51","Mozilla/5.0 (Macintosh; U; Mac OS X Mach-O; en-US; rv:2.0a) Gecko/20040614 Firefox/3.0.0","Mozilla/5.0 (Windows NT 6.1) AppleWebKit/535.2 (KHTML, like Gecko) Chrome/18.6.872.0 Safari/535.2 UNTRUSTED/1.0 3gpp-gba UNTRUSTED/1.0","Mozilla/5.0 (Linux; Android 4.4.2; LG-V410 Build/KOT49I.V41010d) AppleWebKit/537.36 (KHTML, like Gecko) Chrome/30.0.1599.103 Safari/537.36"],"company":"Aimbu","country":"Andorra","email":"TinaHughes@Zoomdog.mil","job":"Web Developer #{N}","name":"Janice Lane","phone":"449-84-01"}
{"browsers":["Mozilla/5.0 (iPad; U; CPU OS 3_2 like Mac OS X; en-us) AppleWebKit/531.21.10 (KHTML, like Gecko) Version/4.0.4 Mobile/7B334b Safari/531.21.10","Mozilla/5.0 (X11; Linux x86_64) AppleWebKit/537.36 (KHTML, like Gecko) Chrome/47.0.2526.80 Safari/537.36 Vivaldi/1.0.344.37","Mozilla/3.0 (compatible; NetPositive/2.1.1; BeOS)","Mozilla/5.0 (Windows NT 5.1; rv:5.0) Gecko/20100101 Firefox/5.0"],"company":"Zoombeat","country":"Madagascar","email":"JasonFox@Eire.info","job":"Recruiting Manager","name":"Annie Kennedy","phone":"4-365-557-84-03"}
{"browsers":["Mozilla/5.0 (Linux; Android 4.3; SPH-L710 Build/JSS15J) AppleWebKit/537.36 (KHTML, like Gecko) Chrome/32.0.1700.99 Mobile Safari/537.36","Mozilla/5.0 (Windows NT 10.0; ARM; Lumia 950 Dual SIM) AppleWebKit/537.36 (KHTML, like Gecko) Chrome/51.0.2704.79 Safari/537.36 Edge/14.14393","Mozilla/5.0 (iPad; CPU OS 6_0 like Mac OS X) AppleWebKit/536.26 (KHTML, like Gecko) Version/6.0 Mobile/10A5355d Safari/8536.25","Mozilla/4.0 (compatible; MSIE 6.0; Windows 98; PalmSource/hspr-H102; Blazer/4.0) 16;320x320"],"company":"Eamia","country":"Guam","email":"3Riley@Leenti.biz","job":"Business Systems Development Analyst","name":"Donna Stevens","phone":"5-059-402-79-70"}
{"browsers":["Mozilla/5.0 (Windows NT 6.2; ARM; Trident/7.0; Touch; rv:11.0; WPDesktop; NOKIA; Lumia 920) like Geckoo","Mozilla/5.0 (X11; U; Linux i686; en-US; rv:1.9a3pre) Gecko/20070330","Mozilla/5.0 (compatible; MSIE 10.0; Windows Phone 8.0; Trident/6.0; IEMobile/10.0; ARM; Touch)","Mozilla/5.0 (X11; U; Linux i686; rv:19.0) Gecko/20100101 Slackware/13 Firefox/19.0"],"company":"Wordware","country":"Finland","email":"voluptatem_laborum@Leexo.edu","job":"Statistician #{N}","name":"Pamela Arnold","phone":"7-717-498-53-98"}
{"browsers":["LG-LX550 AU-MIC-LX550/2.0 MMP/2.0 Profile/MIDP-2.0 Configuration/CLDC-1.1","Mozilla/5.0 (Windows; U; Windows NT 6.0; en-US) AppleWebKit/527  (KHTML, like Gecko, Safari/419.3) Arora/0.6 (Change: )","P3P Validator","Opera/9.80 (Windows NT 6.1; U; en) Presto/2.7.62 Version/11.01"],"company":"Kimia","country":"Heard and McDonald Islands","email":"MelissaRobertson@Jabbercube.info","job":"Human Resources Assistant #{N}","name":"Sandra Matthews","phone":"0-619-330-67-22"}
{"browsers":["SonyEricssonT68/R201A","Mozilla/5.0 (Linux; U; Android 2.2; en-us; SCH-I800 Build/FROYO) AppleWebKit/533.1 (KHTML, like Gecko) Version/4.0 Mobile Safari/533.1","Mozilla/5.0 (PLAYSTATION 3; 2.00)","Mozilla/5.0 (Windows NT 6.1; WOW64) AppleWebKit/536.6 (KHTML, like Gecko) Chrome/20.0.1092.0 Safari/536.6"],"company":"Lazzy","country":"Cape Verde","email":"9Ortiz@Youfeed.edu","job":"Administrative Assistant #{N}","name":"Lori Wheeler","phone":"0-377-656-55-32"}
{"browsers":["BlackBerry8300/4.2.2 Profile/MIDP-2.0 Configuration/CLDC-1.1 VendorID/107 UP.Link/6.2.3.15.0","Mozilla/5.0 (iPad; U; CPU OS 3_2 like Mac OS X; en-us) AppleWebKit/531.21.10 (KHTML, like Gecko) Version/4.0.4 Mobile/7B334b Safari/531.21.10","Mozilla/5.0 (Linux; U; Android 1.5; en-us; SPH-M900 Build/CUPCAKE) AppleWebKit/528.5  (KHTML, like Gecko) Version/3.1.2 Mobile Safari/525.20.1","grub-client-1.5.3; (grub-client-1.5.3; Crawl your own stuff with http://grub.org)"],"company":"Teklist","country":"Kenya","email":"placeat_qui@Meevee.gov","job":"VP Sales","name":"Arthur Wells","phone":"1-119-294-88-96"}
{"browsers":["Mozilla/5.0 (Linux; Android 4.4.2; SAMSUNG-SM-T537A Build/KOT49H) AppleWebKit/537.36 (KHTML like Gecko) Chrome/35.0.1916.141 Safari/537.36","Mozilla/5.0 (X11; U; Linux i686; en-US; rv:1.8.1) Gecko/20061024 Firefox/2.0 (Swiftfox)","Mozilla/3.01Gold (Win95; I)","Mozilla/5.0 (Symbian/3; Series60/5.2 NokiaN8-00/014.002; Profile/MIDP-2.1 Configuration/CLDC-1.1; en-us) AppleWebKit/525 (KHTML, like Gecko) Version/3.0 BrowserNG/7.2.6.4 3gpp-gba"],"company":"Shufflester","country":"Bermuda","email":"KarenDean@Jabberbean.gov","job":"Developer #{N}","name":"Chris Harper","phone":"8-049-429-67-01"}
{"browsers":["Mozilla/5.0 (Unknown; UNIX BSD/SYSV system) AppleWebKit/538.1 (KHTML, like Gecko) QupZilla/1.7.0 Safari/538.1","Mozilla/5.0 (X11; Linux x86_64) AppleWebKit/537.36 (KHTML, like Gecko) Ubuntu Chromium/33.0.1750.152 Chrome/33.0.1750.152 Safari/537.36","Mozilla/5.0 (iPad; U; CPU OS 4_2_1 like Mac OS X; ja-jp) AppleWebKit/533.17.9 (KHTML, like Gecko) Version/5.0.2 Mobile/8C148 Safari/6533.18.5","Mozilla/5.0 (Linux; webOS/2.2.4; U; en-US) AppleWebKit/534.6 (KHTML, like Gecko) webOSBrowser/221.56 Safari/534.6 Pre/3.0"],"company":"Photobug","country":"Cameroon","email":"AnnaMiller@Youopia.com","job":"Desktop Support Technician","name":"Ann Mcdonald","phone":"067-22-69"}
{"browsers":["Mozilla/5.0 (Macintosh; Intel Mac OS X 10_8_4) AppleWebKit/537.31 (KHTML like Gecko) Chrome/26.0.1410.63 Safari/537.31","ELinks (0.4.3; NetBSD 3.0.2PATCH sparc64; 141x19)","Mozilla/5.0 (Unknown; U; UNIX BSD/SYSV system; C -) AppleWebKit/527  (KHTML, like Gecko, Safari/419.3) Arora/0.10.2","Opera/9.80 (Macintosh; Intel Mac OS X 10.6.8; U; fr) Presto/2.9.168 Version/11.52"],"company":"Layo","country":"India","email":"4Shaw@Eazzy.com","job":"Registered Nurse","name":"Anthony Lane","phone":"307-87-58"}
{"browsers":["Mozilla/5.0 (Maemo; Linux armv7l; rv:10.0.1) Gecko/20100101 Firefox/10.0.1 Fennec/10.0.1","Mozilla/5.0 (Macintosh; Intel Mac OS X 1083) AppleWebKit/537.36 (KHTML like Gecko) Chrome/28.0.1469.0 Safari/537.36","Mozilla/5.0 (Windows NT 6.1; WOW64) AppleWebKit/537.1 (KHTML like Gecko) Maxthon/4.0.0.2000 Chrome/22.0.1229.79 Safari/537.1","Mozilla/5.0 (X11; Linux i686; rv:12.0) Gecko/20100101 Firefox/12.0"],"company":"Yozio","country":"Madagascar","email":"harum@Flipopia.edu","job":"Clinical Specialist","name":"Brenda Cole","phone":"3-582-304-19-14"}
