{"browsers":["Mozilla/5.0 (X11; U; Linux x86_64; en-AU) AppleWebKit/534.35 (KHTML, like Gecko) Chrome/11.0.696.65 Safari/534.35 Puffin/3.9174IT","Mozilla/5.0 (iPhone; CPU iPhone OS 9_2 like Mac OS X) AppleWebKit/601.1.46 (KHTML, like Gecko) Version/9.0 Mobile/13C75 Safari/601.1","Mozilla/5.0 (X11; Linux i686; rv:43.0) Gecko/20100101 Firefox/43.0","Bloglines/3.1 (http://www.bloglines.com)"],"company":"Tagpad","country":"Lesotho","email":"JohnLopez@Miboo.name","job":"Recruiter","name":"Richard Mitchell","phone":"988-13-35"}
{"browsers":["Mozilla/5.0 (Linux; U; Android 3.0.1; fr-fr; A500 Build/HRI66) AppleWebKit/534.13 (KHTML, like Gecko) Version/4.0 Safari/534.13","Mozilla/5.0 (Windows NT 6.1; WOW64) AppleWebKit/535.7 (KHTML, like Gecko) Chrome/16.0.912.36 Safari/535.7","Mozilla/5.0 (webOS/1.3; U; en-US) AppleWebKit/525.27.1 (KHTML, like Gecko) Version/1.0 Safari/525.27.1 Desktop/1.0","MOT-L7v/08.B7.5DR MIB/2.2.1 Profile/MIDP-2.0 Configuration/CLDC-1.1 UP.Link/6.3.0.0.0"],"company":"Thoughtblab","country":"Albania","email":"JuanBennett@Jabberbean.info","job":"Safety Technician #{N}","name":"Deborah Miller","phone":"608-51-49"}
{"browsers":["Mozilla/5.0 (Windows NT 6.0) AppleWebKit/535.2 (KHTML, like Gecko) Chrome/15.0.874.120 Safari/535.2","Mozilla/5.0 (Windows NT 6.1; WOW64; rv:12.0) Gecko/20120422 Firefox/12.0 SeaMonkey/2.9","Mozilla/5.0 (iPad; CPU OS 7_1_2 like Mac OS X) AppleWebKit/537.51.2 (KHTML, like Gecko) Version/7.0 Mobile/11D257 Safari/9537.53","Mozilla/5.0 (Linux; Android 4.0.4; BNTV400 Build/IMM76L) AppleWebKit/537.36 (KHTML, like Gecko) Chrome/42.0.2311.111 Safari/537.36"],"company":"Tazz","country":"US Minor Outlying Islands","email":"provident@Youopia.name","job":"Project Manager","name":"Anne Moreno","phone":"869-93-53"}
{"browsers":["Mozilla/5.0 (Linux; Android 7.0; Nexus 9 Build/NRD90R) AppleWebKit/537.36 (KHTML, like Gecko) Chrome/53.0.2785.124 Safari/537.36","Links (2.3pre1; Linux 2.6.38-8-generic x86_64; 170x48)","Opera/9.80 (Windows NT 6.1; U; en) Presto/2.7.62 Version/11.01","Nokia3230/2.0 (5.0614.0) SymbianOS/7.0s Series60/2.1 Profile/MIDP-2.0 Configuration/CLDC-1.0"],"company":"Edgepulse","country":"Niger","email":"6Phillips@Mynte.biz","job":"Quality Control Specialist","name":"David Andrews","phone":"5-128-188-12-96"}
{"browsers":["SonyEricssonK750i/R1CA Browser/SEMC-Browser/4.2 Profile/MIDP-2.0 Configuration/CLDC-1.1","Mozilla/5.0 (X11; Linux i686) AppleWebKit/534.34 (KHTML, like Gecko) QupZilla/1.2.0 Safari/534.34","Mozilla/4.0 (compatible; MSIE 7.0; Windows NT 6.0; Trident/5.0)","Mozilla/5.0 (Macintosh; Intel Mac OS X 10_9_3) AppleWebKit/537.75.14 (KHTML, like Gecko) Version/7.0.3 Safari/7046A194A"],"company":"Kimia","country":"Croatia","email":"reprehenderit@Midel.com","job":"Geologist #{N}","name":"Mary Evans","phone":"8-675-295-27-01"}
{"browsers":["Mozilla/5.0 (OS/2; U; OS/2; en-US) AppleWebKit/533.3 (KHTML, like Gecko) Arora/0.11.0 Safari/533.3","SonyEricssonT650i/R7AA Browser/NetFront/3.3 Profile/MIDP-2.0 Configuration/CLDC-1.1","Mozilla/5.0 (Linux; U; Android 1.5; de-de; Galaxy Build/CUPCAKE) AppleWebKit/528.5  (KHTML, like Gecko) Version/3.1.2 Mobile Safari/525.20.1","Mozilla/5.0 (Linux; Android 4.4.2; SM-T230NU Build/KOT49H) AppleWebKit/537.36 (KHTML, like Gecko) Chrome/51.0.2704.81 Safari/537.36"],"company":"Gabcube","country":"Finland","email":"3Fields@Blogtag.net","job":"Professor","name":"Eugene Taylor","phone":"609-90-12"}
{"browsers":["Mozilla/5.0 (Windows NT 6.2; Win64; x64) AppleWebKit/537.36 (KHTML, like Gecko) Chrome/32.0.1667.0 Safari/537.36","Mozilla/5.0 (X11; Linux i686; rv:43.0) Gecko/20100101 Firefox/43.0","Mozilla/5.0 (Windows NT 6.1; WOW64) AppleWebKit/535.7 (KHTML, like Gecko) Chrome/16.0.912.36 Safari/535.7","Mozilla/5.0 (Linux; U; Android 1.5; de-de; Galaxy Build/CUPCAKE) AppleWebKit/528.5  (KHTML, like Gecko) Version/3.1.2 Mobile Safari/525.20.1"],"company":"Yoveo","country":"Zimbabwe","email":"JasonKing@Youopia.org","job":"Account Executive","name":"Betty Bowman","phone":"772-21-05"}
{"browsers":["Mozilla/5.0 (Linux; U; Android 1.5; de-de; Galaxy Build/CUPCAKE) AppleWebKit/528.5  (KHTML, like Gecko) Version/3.1.2 Mobile Safari/525.20.1","Mozilla/5.0 (X11; U; Linux i686; en-US) AppleWebKit/534.15 (KHTML, like Gecko) Ubuntu/10.10 Chromium/10.0.613.0 Chrome/10.0.613.0 Safari/534.15","Mozilla/5.0 (Macintosh; U; Intel Mac OS X 10.6; en-US; rv:1.9.2.14) Gecko/20110218 AlexaToolbar/alxf-2.0 Firefox/3.6.14","Mozilla/5.0 (X11; Ubuntu; Linux x86_64; rv:20.0) Gecko/20100101 Firefox/20.0"],"company":"Teklist","country":"Eritrea","email":"FrankChapman@Wikivu.net","job":"Associate Professor","name":"Evelyn Watson","phone":"9-680-524-39-21"}
{"browsers":["Mozilla/5.0 (Windows; U; ; en-NZ) AppleWebKit/527  (KHTML, like Gecko, Safari/419.3) Arora/0.8.0","Mozilla/5.0 (Linux; U; Android 1.5; de-de; HTC Magic Build/PLAT-RC33) AppleWebKit/528.5  (KHTML, like Gecko) Version/3.1.2 Mobile Safari/525.20.1 FirePHP/0.3","Mozilla/5.0 (Windows Phone 8.1; ARM; Trident/7.0; Touch; rv:11.0; IEMobile/11.0; NOKIA; Lumia 630) like Gecko","Mozilla/5.0 (iPad; U; CPU OS 4_2_1 like Mac OS X; ja-jp) AppleWebKit/533.17.9 (KHTML, like Gecko) Version/5.0.2 Mobile/8C148 Safari/6533.18.5"],"company":"Roombo","country":"United Kingdom","email":"LawrenceLane@Twitterlist.net","job":"Account Representative #{N}","name":"Sean Boyd","phone":"5-737-025-13-66"}
{"browsers":["Mozilla/5.0 (X11; Linux x86_64; rv:7.0a1) Gecko/20110623 Firefox/7.0a1","Mozilla/5.0 (X11; U; OpenBSD i386; en-US; rv:1.9.1) Gecko/20090702 Firefox/3.5","Mozilla/5.0 (Linux; Android 6.0.1; SM-G900H Build/MMB29K) AppleWebKit/537.36 (KHTML, like Gecko) Chrome/52.0.2743.98 Mobile Safari/537.36","Mozilla/5.0 (X11; U; Linux x86_64; en-AU) AppleWebKit/534.35 (KHTML, like Gecko) Chrome/11.0.696.65 Safari/534.35 Puffin/3.9174IT"],"company":"Trudeo","country":"Malawi","email":"yWood@Jabbercube.gov","job":"Analyst Programmer","name":"Jennifer Hicks","phone":"934-80-10"}
{"browsers":["Microsoft URL Control - 6.00.8862","Avant Browser/1.2.789rel1 (http://www.avantbrowser.com)","Opera/9.5 (Microsoft Windows; PPC; Opera Mobi; U) SonyEricssonX1i/R2AA Profile/MIDP-2.0 Configuration/CLDC-1.1","Mozilla/5.0 (Linux; U; Android 4.0.3; de-ch; HTC Sensation Build/IML74K) AppleWebKit/534.30 (KHTML, like Gecko) Version/4.0 Mobile Safari/534.30"],"company":"Snaptags","country":"Namibia","email":"JoanMccoy@Meemm.biz","job":"Civil Engineer","name":"Barbara Owens","phone":"8-153-845-43-61"}
{"browsers":["Mozilla/5.0 (Macintosh; Intel Mac OS X 10_7_5) AppleWebKit/536.26.17 (KHTML like Gecko) Version/6.0.2 Safari/536.26.17","Gregarius/0.5.2 ( http://devlog.gregarius.net/docs/ua)","Mozilla/5.0 (compatible; Konqueror/4.2; Linux) KHTML/4.2.4 (like Gecko) Slackware/13.0","Mozilla/4.0 (compatible; MSIE 6.0; j2me) ReqwirelessWeb/3.5"],"company":"Thoughtmix","country":"Montenegro","email":"RogerWells@Voonder.edu","job":"Operator","name":"Stephen Dean","phone":"148-63-81"}
{"browsers":["BlackBerry9700/5.0.0.351 Profile/MIDP-2.1 Configuration/CLDC-1.1 VendorID/123","Mozilla/5.0 (Macintosh; Intel Mac OS X 10_11) AppleWebKit/601.1.56 (KHTML, like Gecko) Version/9.0 Safari/601.1.56","Mozilla/5.0 (iPad; U; CPU OS 4_2_1 like Mac OS X; ja-jp) AppleWebKit/533.17.9 (KHTML, like Gecko) Version/5.0.2 Mobile/8C148 Safari/6533.18.5","Nokia6230i/2.0 (03.80) Profile/MIDP-2.0 Configuration/CLDC-1.1"],"company":"Twinte","country":"Tuvalu","email":"JoseRichards@Rhyloo.edu","job":"Editor","name":"Louise Lee","phone":"067-17-82"}
{"browsers":["Mozilla/4.0 (compatible; MSIE 6.0; Windows CE; IEMobile 7.11)","Mozilla/5.0 (Windows; U; Win98; en-US; rv:1.4) Gecko Netscape/7.1 (ax)","Mozilla/5.0 (Windows NT 6.1; Win64; x64; rv:25.0) Gecko/20100101 Firefox/29.0","Mozilla/5.0 (X11; U; Linux i686; rv:19.0) Gecko/20100101 Slackware/13 Firefox/19.0"],"company":"Oloo","country":"Ireland","email":"xJenkins@Topicblab.name","job":"Software Consultant","name":"Joshua Davis","phone":"1-011-531-99-77"}
{"browsers":["Mozilla/5.0 (X11; Linux i686; rv:32.0) Gecko/20100101 Firefox/32.0","Mozilla/5.0 (X11; Linux) KHTML/4.9.1 (like Gecko) Konqueror/4.9","Mozilla/5.0 (Macintosh; Intel Mac OS X 10.6; rv:25.0) Gecko/20100101 Firefox/25.0","everyfeed-spider/2.0 (http://www.everyfeed.com)"],"company":"Brightdog","country":"Cambodia","email":"ad@Dynabox.com","job":"Research Associate","name":"Adam Lawson","phone":"6-523-015-83-43"}
{"browsers":["Mozilla/5.0 (MeeGo; NokiaN950-00/00) AppleWebKit/534.13 (KHTML, like Gecko) NokiaBrowser/8.5.0 Mobile Safari/534.13","Mozilla/5.0 (Windows NT 6.2; ARM; Trident/7.0; Touch; rv:11.0; WPDesktop; NOKIA; Lumia 635) like Gecko","Mozilla/5.0 (SymbianOS/9.4; U; Series60/5.0 SonyEricssonP100/01; Profile/MIDP-2.1 Configuration/CLDC-1.1) AppleWebKit/525 (KHTML, like Gecko) Version/3.0 Safari/525","Mozilla/5.0 (compatible; Konqueror/3.5; NetBSD 4.0_RC3; X11) KHTML/3.5.7 (like Gecko)"],"company":"Flashset","country":"Senegal","email":"quae_esse_debitis@Skibox.org","job":"Data Coordinator","name":"Lisa Roberts","phone":"0-208-515-08-89"}
{"browsers":["Mozilla/5.0 (X11; U; Linux i686; en-US; rv:1.6) Gecko/20040614 Firefox/0.8","Mozilla/5.0 (X11; U; Linux x86_64; en-US) AppleWebKit/532.9 (KHTML, like Gecko) Chrome/5.0.309.0 Safari/532.9","Mozilla/5.0 (Linux; Android 4.0.4; BNTV400 Build/IMM76L) AppleWebKit/537.36 (KHTML, like Gecko) Chrome/42.0.2311.111 Safari/537.36","Mozilla/5.0 (X11; U; Linux x86_64; en-US) AppleWebKit/537.36 (KHTML, like Gecko) Chrome/30.0.1599.114 Safari/537.36 Puffin/4.5.0IT"],"company":"Fivebridge","country":"United States Virgin Islands","email":"quam_voluptas@Photobean.org","job":"Teacher","name":"Lori Banks","phone":"6-555-679-63-49"}
{"browsers":["Midori/0.1.10 (X11; Linux i686; U; en-us) WebKit/(531).(2)","Mozilla/5.0 (Linux; Android 5.1; C6740N Build/LMY47O) AppleWebKit/537.36 (KHTML, like Gecko) Chrome/42.0.2311.111 Mobile Safari/537.36","Mozilla/5.0 (Macintosh; U; Intel Mac OS X 10_5_6; en-US) AppleWebKit/528.16 (KHTML, like Gecko, Safari/528.16) OmniWeb/v622.8.0","Mozilla/5.0 (Linux; Android 5.0.2; SAMSUNG SM-T530NU Build/LRX22G) AppleWebKit/537.36 (KHTML, like Gecko) SamsungBrowser/3.2 Chrome/38.0.2125.102 Safari/537.36"],"company":"Flipbug","country":"South Africa","email":"5Gonzalez@Topicware.biz","job":"Software Test Engineer #{N}","name":"Todd Fuller","phone":"262-33-56"}
{"browsers":["Mozilla/5.0 (Macintosh; U; Intel Mac OS X 10_5_8; en-US) AppleWebKit/532.8 (KHTML, like Gecko) Chrome/4.0.302.2 Safari/532.8","Mozilla/5.0 (Macintosh; U; Mac OS X Mach-O; en-US; rv:2.0a) Gecko/20040614 Firefox/3.0.0","MOT-V177/0.1.75 UP.Browser/6.2.3.9.c.12 (GUI) MMP/2.0 UP.Link/6.3.1.13.0","iTunes/9.0.3 (Macintosh; U; Intel Mac OS X 10_6_2; en-ca)"],"company":"Aibox","country":"Grenada","email":"9Sanders@Mynte.name","job":"Marketing Manager","name":"Ruby Crawford","phone":"7-856-538-18-03"}
{"browsers":["Mozilla/5.0 (iPad; CPU OS 6_0 like Mac OS X) AppleWebKit/536.26 (KHTML, like Gecko) Version/6.0 Mobile/10A5355d Safari/8536.25","Nokia6630/1.0 (2.39.15) SymbianOS/8.0 Series60/2.6 Profile/MIDP-2.0 Configuration/CLDC-1.1","Mozilla/5.0 (X11; Linux i686; rv:12.0) Gecko/20120502 Firefox/12.0 SeaMonkey/2.9.1","Mozilla/5.0 (X11; Linux i686) AppleWebKit/534.34 (KHTML, like Gecko) QupZilla/1.2.0 Safari/534.34"],"company":"Jabberstorm","country":"Norfolk Island","email":"ipsa_consequatur@Livefish.net","job":"Nurse","name":"Laura Snyder","phone":"9-758-042-54-99"}
