{"browsers":["Mozilla/5.0 (Macintosh; Intel Mac OS X 10.9; rv:47.0) Gecko/20100101 Firefox/47.0","Mozilla/5.0 (Windows NT 6.0) AppleWebKit/535.2 (KHTML, like Gecko) Chrome/15.0.874.120 Safari/535.2","Mozilla/5.0 (Windows NT 6.1; WOW64) AppleWebKit/537.1 (KHTML, like Gecko) Chrome/22.0.1207.1 Safari/537.1","SonyEricssonK610i/R1CB Browser/NetFront/3.3 Profile/MIDP-2.0 Configuration/CLDC-1.1"],"company":"Babbleset","country":"Isle of Man","email":"8Boyd@Quatz.org","job":"Electrical Engineer","name":"Keith Matthews","phone":"6-389-196-41-07"}
{"browsers":["Mozilla/5.0 (Linux; Android 5.1.1; Nexus 7 Build/LMY47V) AppleWebKit/537.36 (KHTML, like Gecko) Chrome/43.0.2357.78 Safari/537.36 OPR/30.0.1856.93524","Mozilla/5.0 (iPhone; U; CPU iPhone OS 2_0 like Mac OS X; en-us) AppleWebKit/525.18.1 (KHTML, like Gecko) Version/3.1.1 Mobile/5A347 Safari/525.200","Mozilla/5.0 (X11; U; FreeBSD i386; en-US) AppleWebKit/532.0 (KHTML, like Gecko) Chrome/4.0.207.0 Safari/532.0","Mozilla/5.0 (Macintosh; U; Intel Mac OS X 10_7; en-us) AppleWebKit/534.20.8 (KHTML, like Gecko) Version/5.1 Safari/534.20.8"],"company":"Pixoboo","country":"Christmas Island","email":"yHart@Shuffletag.edu","job":"Human Resources Manager","name":"Anthony Morales","phone":"7-417-567-17-39"}
{"browsers":["Mozilla/5.0 (Symbian/3; Series60/5.2 NokiaN8-00/014.002; Profile/MIDP-2.1 Configuration/CLDC-1.1; en-us) AppleWebKit/525 (KHTML, like Gecko) Version/3.0 BrowserNG/7.2.6.4 3gpp-gba","Mozilla/5.0 (X11; Linux x86_64) AppleWebKit/537.36 (KHTML, like Gecko) Ubuntu Chromium/33.0.1750.152 Chrome/33.0.1750.152 Safari/537.36","Mozilla/5.0 (X11; U; Linux x86_64; en-US; rv:1.9.2.9) Gecko/20100915 Gentoo Firefox/3.6.9","Mozilla/5.0 (X11; U; Linux x86_64; en-US) AppleWebKit/540.0 (KHTML, like Gecko) Ubuntu/10.10 Chrome/9.1.0.0 Safari/540.0"],"company":"Quimm","country":"Guam","email":"bHarris@Aimbo.info","job":"Accountant #{N}","name":"Laura Taylor","phone":"6-480-185-45-03"}
{"browsers":["Mozilla/5.0 (X11; Ubuntu; Linux x86_64; rv:14.0) Gecko/20100101 Firefox/14.0.1","Mozilla/5.0 (Windows NT 6.1; WOW64) AppleWebKit/536.6 (KHTML, like Gecko) Chrome/20.0.1092.0 Safari/536.6","Mozilla/5.0 (Windows NT 6.1; Win64; x64; rv:25.0) Gecko/20100101 Firefox/25.0","Mozilla/5.0 (compatible; Konqueror/4.1; OpenBSD) KHTML/4.1.4 (like Gecko)"],"company":"Yambee","country":"Fiji","email":"dignissimos_labore_suscipit@Zoomcast.com","job":"Compensation Analyst","name":"Deborah Medina","phone":"3-629-680-65-85"}
{"browsers":["Mozilla/5.0 (X11; U; Linux i686; en-US; rv:1.8.0.7) Gecko/20060909 Firefox/1.5.0.7 MG(Novarra-Vision/6.9)","Mozilla/5.0 (compatible; Konqueror/4.5; FreeBSD) KHTML/4.5.4 (like Gecko)","Mozilla/5.0 (iPad; CPU OS 5_1 like Mac OS X) AppleWebKit/534.46 (KHTML, like Gecko ) Version/5.1 Mobile/9B176 Safari/7534.48.3","Mozilla/5.0 (Android; Mobile; rv:35.0) Gecko/35.0 Firefox/35.0"],"company":"Flipbug","country":"Paraguay","email":"fugiat_et_dolores@Edgepulse.name","job":"Developer #{N}","name":"Susan Schmidt","phone":"3-560-534-25-66"}
{"browsers":["Mozilla/5.0 (Linux; webOS/2.2.4; U; en-US) AppleWebKit/534.6 (KHTML, like Gecko) webOSBrowser/221.56 Safari/534.6 Pre/3.0","Mozilla/5.0 (compatible; Konqueror/4.1; DragonFly) KHTML/4.1.4 (like Gecko)","Mozilla/5.0 (Windows NT 6.1; rv:12.0) Gecko/20120403211507 Firefox/12.0","Opera/9.80 (Android; Opera Mini/7.5.33361/31.1543; U; en) Presto/2.8.119 Version/11.1010"],"company":"Feednation","country":"Uruguay","email":"cum_minima@Livefish.com","job":"Project Manager","name":"Amanda Castillo","phone":"1-055-281-23-85"}
{"browsers":["Mozilla/5.0 (X11; Linux i686) AppleWebKit/538.1 (KHTML, like Gecko) QupZilla/1.8.6 Safari/538.1","Mozilla/5.0 (Linux; U; Android 2.1-update1; de-de; HTC Desire 1.19.161.5 Build/ERE27) AppleWebKit/530.17 (KHTML, like Gecko) Version/4.0 Mobile Safari/530.17","Mozilla/5.0 (Windows NT 6.2; WOW64) AppleWebKit/537.36 (KHTML, like Gecko) Chrome/41.0.2272.76 Safari/537.36 OPR/28.0.1750.40","Mozilla/5.0 (X11; U; Linux x86_64; en-us) AppleWebKit/534.35 (KHTML, like Gecko) Chrome/11.0.696.65 Safari/534.35 Puffin/2.9174AT"],"company":"Rooxo","country":"Sierra Leone","email":"LisaWard@Vinder.biz","job":"Recruiting Manager","name":"Alan Bradley","phone":"548-45-05"}
{"browsers":["Opera/9.80 (S60; SymbOS; Opera Mobi/499; U; ru) Presto/2.4.18 Version/10.00","Adobe Application Manager 2.0","Mozilla/5.0 (X11; Linux i686; rv:6.0a2) Gecko/20110615 Firefox/6.0a2 Iceweasel/6.0a2","Mozilla/5.0 (X11; NetBSD amd64; rv:30.0) Gecko/20100101 Firefox/30.0"],"company":"Zoozzy","country":"Solomon Islands","email":"CherylFrazier@Brightbean.com","job":"VP Sales","name":"Diana Holmes","phone":"334-80-92"}
{"browsers":["Mozilla/5.0 (iPhone; CPU iPhone OS 10_0 like Mac OS X) AppleWebKit/600.1.4 (KHTML, like Gecko) GSA/18.0.130791545 Mobile/14A5345a Safari/600.1.4","Mozilla/5.0 (Linux; U; Android 2.2; en-us; SCH-I800 Build/FROYO) AppleWebKit/533.1 (KHTML, like Gecko) Version/4.0 Mobile Safari/533.1","Mozilla/5.0 (Linux; U; Android 4.0.3; de-ch; HTC Sensation Build/IML74K) AppleWebKit/534.30 (KHTML, like Gecko) Version/4.0 Mobile Safari/534.30","Mozilla/5.0 (X11; U; Linux i686; en-US) AppleWebKit/534.15 (KHTML, like Gecko) Ubuntu/10.10 Chromium/10.0.613.0 Chrome/10.0.613.0 Safari/534.15"],"company":"Youfeed","country":"Burkina Faso","email":"HenryMatthews@BlogXS.com","job":"Media Manager #{N}","name":"Johnny Clark","phone":"3-573-998-25-06"}
{"browsers":["Mozilla/5.0 (X11; U; Linux i686; en-US; rv:1.8.0.7) Gecko/20060909 Firefox/1.5.0.7 MG(Novarra-Vision/6.9)","Mozilla/5.0 (Linux; Android 4.1.2; SHV-E250S Build/JZO54K) AppleWebKit/537.36 (KHTML, like Gecko) Chrome/30.0.1599.82 Mobile Safari/537.36","Mozilla/5.0 (X11; Linux x86_64; rv:19.0) Gecko/20100101 Firefox/19.0 Iceweasel/19.0.2","Mozilla/5.0 (X11; Linux i686) AppleWebKit/535.2 (KHTML, like Gecko) Ubuntu/11.10 Chromium/15.0.874.120 Chrome/15.0.874.120 Safari/535.2"],"company":"Bubblemix","country":"Papua New Guinea","email":"AnneTaylor@Yodoo.org","job":"Professor","name":"Susan Austin","phone":"9-097-615-47-13"}
{"browsers":["Mozilla/5.0 (X11; FreeBSD amd64) AppleWebKit/537.36 (KHTML, like Gecko) Chrome/35.0.1916.153 Safari/537.36","Mozilla/4.0 (compatible; GoogleToolbar 4.0.1019.5266-big; Windows XP 5.1; MSIE 6.0.2900.2180)","Web Downloader/6.9","Mozilla/5.0 (Windows Phone 8.1; ARM; Trident/7.0; Touch; rv:11.0; IEMobile/11.0; NOKIA; Lumia 530) like Gecko"],"company":"Camido","country":"Sierra Leone","email":"bMyers@Edgepulse.mil","job":"Occupational Therapist","name":"Maria Johnston","phone":"7-703-535-24-25"}
{"browsers":["Mozilla/5.0 (Windows NT 10.0; Win64; x64; rv:52.0) Gecko/20100101 Firefox/52.0","Mozilla/5.0 (Linux; Android 6.0; Nexus 5X Build/MDB08L) AppleWebKit/537.36 (KHTML, like Gecko) Chrome/53.0.2785.124 Mobile Safari/537.36","Mozilla/5.0 (X11; Linux i686; rv:5.0) Gecko/20100101 Firefox/5.0","Web Downloader/6.9"],"company":"InnoZ","country":"Jamaica","email":"GaryBlack@Demivee.org","job":"Dental Hygienist","name":"Phyllis Evans","phone":"7-065-347-02-10"}
{"browsers":["Mozilla/5.0 (Macintosh; U; PPC Mac OS X; en) AppleWebKit/418.8 (KHTML, like Gecko) Safari/419.3","FeedFetcher-Google; ( http://www.google.com/feedfetcher.html)","SEC-SGHX210/1.0 UP.Link/6.3.1.13.0","nook browser/1.0"],"company":"Brightbean","country":"Paraguay","email":"laborum@JumpXS.edu","job":"Pharmacist","name":"Marie Cox","phone":"968-30-83"}
{"browsers":["Mozilla/5.0 (Windows NT 5.1) AppleWebKit/537.36 (KHTML, like Gecko) Chrome/36.0.1985.67 Safari/537.36","Mozilla/5.0 (Linux; U; Android 3.0.1; fr-fr; A500 Build/HRI66) AppleWebKit/534.13 (KHTML, like Gecko) Version/4.0 Safari/534.13","Mozilla/5.0 (X11; FreeBSD amd64) AppleWebKit/536.5 (KHTML like Gecko) Chrome/19.0.1084.56 Safari/536.5","Mozilla/5.0 (Linux; U; Android 4.1; en-us; sdk Build/MR1) AppleWebKit/534.30 (KHTML, like Gecko) Version/4.1 Safari/534.30"],"company":"Dabtype","country":"Guinea","email":"nihil@Quamba.name","job":"Account Coordinator","name":"Ruth Thomas","phone":"5-722-978-51-96"}
{"browsers":["Mozilla/5.0 (X11; Linux x86_64; rv:7.0a1) Gecko/20110623 Firefox/7.0a1","Mozilla/5.0 (X11; U; Linux x86_64; en-US; rv:1.9.1.3) Gecko/20091020 Linux Mint/8 (Helena) Firefox/3.5.3","Mozilla/5.0 (X11; Linux i686; rv:16.0) Gecko/20100101 Firefox/16.0","Mozilla/5.0 (X11; Linux i686) AppleWebKit/537.22 (KHTML like Gecko) Ubuntu Chromium/25.0.1364.160 Chrome/25.0.1364.160 Safari/537.22"],"company":"Kayveo","country":"Niger","email":"AshleyGibson@Skidoo.edu","job":"Assistant Professor","name":"Samuel Carpenter","phone":"229-76-28"}
{"browsers":["Mozilla/5.0 (SymbianOS/9.4; U; Series60/5.0 SonyEricssonP100/01; Profile/MIDP-2.1 Configuration/CLDC-1.1) AppleWebKit/525 (KHTML, like Gecko) Version/3.0 Safari/525","Mozilla/5.0 (Windows; U; ; en-NZ) AppleWebKit/527  (KHTML, like Gecko, Safari/419.3) Arora/0.8.0","msnbot/0.11 ( http://search.msn.com/msnbot.htm)","Mozilla/4.0 (compatible; MSIE 5.5; Windows NT 5.0 )"],"company":"Browsezoom","country":"Saint Kitts and Nevis","email":"LoisHansen@Ozu.net","job":"Safety Technician #{N}","name":"Julie Garrett","phone":"522-29-00"}
{"browsers":["Opera/9.80 (Windows NT 6.1; U; es-ES) Presto/2.9.181 Version/12.00","Mozilla/5.0 (Linux; U; Android 2.0; en-us; Droid Build/ESD20) AppleWebKit/530.17 (KHTML, like Gecko) Version/4.0 Mobile Safari/530.17","Links (2.1pre15; Linux 2.4.26 i686; 158x61)","Mozilla/5.0 (Android 6.0.1; Mobile; rv:48.0) Gecko/48.0 Firefox/48.0"],"company":"Skimia","country":"Northern Mariana Islands","email":"lNguyen@Photobean.edu","job":"Software Consultant","name":"Jason Spencer","phone":"6-878-934-70-62"}
{"browsers":["Mozilla/5.0 (X11; U; Linux x86_64; en-us) AppleWebKit/537.36 (KHTML, like Gecko)  Chrome/30.0.1599.114 Safari/537.36 Puffin/4.8.0.2965AT","Mozilla/5.0 (Linux; Android 6.0; LG-D850 Build/MRA58K) AppleWebKit/537.36 (KHTML, like Gecko) Chrome/53.0.2785.97 Mobile Safari/537.36","Web Downloader/6.9","Mozilla/5.0 (Windows NT 5.1; rv:31.0) Gecko/20100101 Firefox/31.0"],"company":"Shufflebeat","country":"Algeria","email":"enim@Linktype.info","job":"Health Coach #{N}","name":"Robert George","phone":"878-65-07"}
{"browsers":["Roku/DVP-4.1 (024.01E01250A)","Mozilla/5.0 (iPad; CPU OS 9_3_2 like Mac OS X) AppleWebKit/601.1.46 (KHTML, like Gecko) Version/9.0 Mobile/13F69 Safari/601.1","Mozilla/1.22 (compatible; MSIE 5.01; PalmOS 3.0) EudoraWeb 2.1","wii libnup/1.0"],"company":"Photobug","country":"Turkey","email":"ErnestFernandez@Jetwire.edu","job":"Legal Assistant","name":"Evelyn Ruiz","phone":"7-605-935-40-55"}
{"browsers":["Mozilla/5.0 (iPod; CPU iPhone OS 8_4 like Mac OS X) AppleWebKit/600.1.4 (KHTML, like Gecko) CriOS/44.0.2403.67 Mobile/12H143 Safari/600.1.4","Konqueror/3.0-rc4; (Konqueror/3.0-rc4; i686 Linux;;datecode)","Mozilla/5.0 (Macintosh; Intel Mac OS X 10.7; rv:20.0) Gecko/20100101 Firefox/20.0","Mozilla/5.0 (Macintosh; Intel Mac OS X 10_7_3) AppleWebKit/534.55.3 (KHTML, like Gecko) Version/5.1.3 Safari/534.53.10"],"company":"JumpXS","country":"Macedonia","email":"omnis@Vimbo.biz","job":"Senior Sales Associate","name":"Cheryl Nguyen","phone":"256-37-90"}
