{"browsers":["Opera/9.80 (Macintosh; Intel Mac OS X 10.4.11; U; en) Presto/2.7.62 Version/11.00","Opera/9.80 (Android 4.0.4; Linux; Opera Mobi/ADR-1205181138; U; pl) Presto/2.10.254 Version/12.00","Opera/8.01 (J2ME/MIDP; Opera Mini/1.0.1479/HiFi; SonyEricsson P900; no; U; ssr)","Opera/7.50 (Windows ME; U) [en]"],"company":"Fivebridge","country":"Russia","email":"sit_aut@Viva.mil","job":"Help Desk Technician","name":"Sandra Romero","phone":"4-108-926-33-97"}
{"browsers":["Opera/8.01 (J2ME/MIDP; Opera Mini/1.0.1479/HiFi; SonyEricsson P900; no; U; ssr)","Mozilla/5.0 (X11; U; Linux i686; en-US) AppleWebKit/532.4 (KHTML, like Gecko) Chrome/4.0.237.0 Safari/532.4 Debian","Opera/9.60 (J2ME/MIDP; Opera Mini/4.2.14320/554; U; cs) Presto/2.2.0","Mozilla/5.0 (Windows Phone 10.0; Android 4.2.1; DEVICE INFO) AppleWebKit/537.36 (KHTML, like Gecko) Chrome/39.0.2171.71 Mobile Safari/537.36 Edge/12.0"],"company":"Linktype","country":"Brunei Darussalam","email":"quaerat_non_nemo@Topicshots.com","job":"Social Worker","name":"Terry Franklin","phone":"2-326-300-44-04"}
{"browsers":["Mozilla/5.0 (SymbianOS/9.4; Series60/5.0 NokiaN97-1/10.0.012; Profile/MIDP-2.1 Configuration/CLDC-1.1; en-us) AppleWebKit/525 (KHTML, like Gecko) WicKed/7.1.12344","Mozilla/5.0 (Macintosh; Intel Mac OS X 10_7_2) AppleWebKit/535.1 (KHTML, like Gecko) Chrome/14.0.835.186 Safari/535.1","Mozilla/5.0 (X11; U; Linux x86_64; sv-SE; rv:1.8.1.12) Gecko/20080207 Ubuntu/7.10 (gutsy) Firefox/2.0.0.12","Mozilla/5.0 (compatible; Konqueror/4.1; DragonFly) KHTML/4.1.4 (like Gecko)"],"company":"Realbridge","country":"Lebanon","email":"voluptatem@Kaymbo.name","job":"Marketing Manager","name":"Ronald Diaz","phone":"786-99-68"}
{"browsers":["libwww-perl/5.820","Mozilla/5.0 (Android 6.0.1; Mobile; rv:48.0) Gecko/48.0 Firefox/48.0","Gregarius/0.5.2 ( http://devlog.gregarius.net/docs/ua)","FAST-WebCrawler/3.8 (crawler at trd dot overture dot com; http://www.alltheweb.com/help/webmaster/crawler)"],"company":"Realcube","country":"Palestinian Territory, Occupied","email":"minima_et@Realbridge.edu","job":"Environmental Specialist","name":"Karen Arnold","phone":"718-92-17"}
{"browsers":["Links (2.1pre15; FreeBSD 5.3-RELEASE i386; 196x84)","Mozilla/5.0 (Linux; U; Android 4.0.3; en-us; KFTT Build/IML74K) AppleWebKit/535.19 (KHTML, like Gecko) Silk/2.1 Mobile Safari/535.19 Silk-Accelerated=true","UCWEB/8.8 (SymbianOS/9.2; U; en-US; NokiaE63) AppleWebKit/534.1 UCBrowser/8.8.0.245 Mobile","Adobe Application Manager 2.0"],"company":"Chatterbridge","country":"Iraq","email":"KarenElliott@Wikivu.edu","job":"Information Systems Manager","name":"Robin Bowman","phone":"205-17-74"}
{"browsers":["Mozilla/5.0 (SymbianOS/9.2; U; Series60/3.1 NokiaE90-1/07.24.0.3; Profile/MIDP-2.0 Configuration/CLDC-1.1 ) AppleWebKit/413 (KHTML, like Gecko) Safari/413 UP.Link/6.2.3.18.0","Mozilla/5.0 (iPhone; U; CPU iPhone OS 5_1_1 like Mac OS X; da-dk) AppleWebKit/534.46.0 (KHTML, like Gecko) CriOS/19.0.1084.60 Mobile/9B206 Safari/7534.48.3","Mozilla/5.0 (compatible; MSIE 9.0; Windows Phone OS 7.5; Trident/5.0; IEMobile/9.0)","Mozilla/5.0 (Linux; U; Android 2.2; en-us; ADR6300 Build/FRF91) AppleWebKit/533.1 (KHTML, like Gecko) Version/4.0 Mobile Safari/533.1"],"company":"Tagpad","country":"Paraguay","email":"MichelleMurray@Quatz.com","job":"Associate Professor","name":"Lisa Barnes","phone":"893-65-09"}
{"browsers":["Web Downloader/6.9","Mozilla/5.0 (X11; Linux x86_64) AppleWebKit/537.36 (KHTML, like Gecko) Chrome/43.0.2357.93 Safari/537.36","Mozilla/5.0 (SymbianOS/9.1; U; en-us) AppleWebKit/413 (KHTML, like Gecko) Safari/413 es65","MOTORIZR-Z8/46.00.00 Mozilla/4.0 (compatible; MSIE 6.0; Symbian OS; 356) Opera 8.65 [it] UP.Link/6.3.0.0.0"],"company":"Buzzdog","country":"Iran","email":"nReynolds@Mydeo.edu","job":"Food Chemist","name":"Martin Patterson","phone":"5-413-173-33-96"}
{"browsers":["Mozilla/5.0 (Linux; Android 6.0.1; SM-G900H Build/MMB29K) AppleWebKit/537.36 (KHTML, like Gecko) Chrome/52.0.2743.98 Mobile Safari/537.36","Mozilla/5.0 (Macintosh; U; Intel Mac OS X 10_5_8; en-US) AppleWebKit/532.8 (KHTML, like Gecko) Chrome/4.0.302.2 Safari/532.8","Mozilla/5.0 (Windows NT 6.0) AppleWebKit/535.2 (KHTML, like Gecko) Chrome/15.0.874.120 Safari/535.2","Mozilla/5.0 (X11; Linux x86_64) AppleWebKit/537.32 (KHTML, like Gecko) Chromium/25.0.1349.2 Chrome/25.0.1349.2 Safari/537.32 Epiphany/3.8.2"],"company":"Mycat","country":"Sierra Leone","email":"RussellGardner@Twitterbeat.biz","job":"Senior Financial Analyst","name":"Brenda Carter","phone":"9-404-343-24-71"}
{"browsers":["Mozilla/5.0 (X11; Ubuntu; Linux x86_64; rv:49.0) Gecko/20100101 Firefox/49.0","Mozilla/5.0 (Windows NT 6.2; ARM; Trident/7.0; Touch; rv:11.0; WPDesktop; NOKIA; Lumia 635) like Gecko","Mozilla/1.22 (compatible; MSIE 5.01; PalmOS 3.0) EudoraWeb 2.1","Mozilla/5.0 (Symbian/3; Series60/5.2 NokiaE7-00/010.016; Profile/MIDP-2.1 Configuration/CLDC-1.1 ) AppleWebKit/525 (KHTML, like Gecko) Version/3.0 BrowserNG/7.2.7.3 3gpp-gba"],"company":"Trudeo","country":"Malta","email":"PatrickRobertson@InnoZ.info","job":"Accountant #{N}","name":"Ruth Ryan","phone":"522-85-18"}
{"browsers":["W3C_Validator/1.305.2.12 libwww-perl/5.64","Opera/9.80 (J2ME/MIDP; Opera Mini/5.0.16823/1428; U; en) Presto/2.2.0","Mozilla/5.0 (Macintosh; Intel Mac OS X 10.10; rv:40.0) Gecko/20100101 Firefox/40.0","Mozilla/5.0 (Macintosh; Intel Mac OS X 10.7; rv:20.0) Gecko/20100101 Firefox/20.0"],"company":"Zooveo","country":"Åland","email":"VirginiaParker@Geba.com","job":"Pharmacist","name":"Donald Price","phone":"8-797-174-60-12"}
{"browsers":["W3C_Validator/1.305.2.12 libwww-perl/5.64","Mozilla/5.0 (compatible; MSIE 9.0; Windows Phone OS 7.5; Trident/5.0; IEMobile/9.0)","Mozilla/5.0 (Windows NT 6.1; WOW64; rv:10.0.1) Gecko/20100101 Firefox/10.0.1","Mozilla/5.0 (Macintosh; Intel Mac OS X 10_9_3) AppleWebKit/537.75.14 (KHTML, like Gecko) Version/7.0.3 Safari/7046A194A"],"company":"Edgeify","country":"Seychelles","email":"dolores_voluptas_voluptate@Gabcube.gov","job":"Senior Sales Associate","name":"Robert Andrews","phone":"4-502-343-10-58"}
{"browsers":["Mozilla/4.0 (compatible; MSIE 5.5; Windows 98; Win 9x 4.90)","SonyEricssonK550i/R1JD Browser/NetFront/3.3 Profile/MIDP-2.0 Configuration/CLDC-1.1","Mozilla/5.0 (Macintosh; Intel Mac OS X 10.5; rv:10.0.1) Gecko/20100101 Firefox/10.0.1 SeaMonkey/2.7.1","Mozilla/5.0 (X11; Linux x86_64) AppleWebKit/537.36 (KHTML, like Gecko) Chrome/33.0.1750.166 Safari/537.36 OPR/20.0.1396.73172"],"company":"Browsezoom","country":"Guyana","email":"facere_adipisci@Trupe.name","job":"Registered Nurse","name":"Eugene Lopez","phone":"7-455-665-40-08"}
{"browsers":["Mozilla/5.0 (X11; U; Linux i686; en-US; rv:1.9a3pre) Gecko/20070330","Mozilla/5.0 (Macintosh; U; Intel Mac OS X 10_5_7;en-us) AppleWebKit/530.17 (KHTML, like Gecko) Version/4.0 Safari/530.17","SuperBot/4.4.0.60 (Windows XP)","Mozilla/5.0 (Windows NT 6.0) AppleWebKit/537.36 (KHTML, like Gecko) Chrome/45.0.2454.93 Safari/537.36"],"company":"Jabbersphere","country":"Yugoslavia","email":"facere_omnis@Browseblab.info","job":"Software Consultant","name":"Kathryn Dixon","phone":"0-675-012-96-87"}
{"browsers":["Mozilla/5.0 (Windows NT 6.1; Win64; x64; rv:25.0) Gecko/20100101 Firefox/25.0","Mozilla/4.0 (compatible; MSIE 6.0; Windows CE; IEMobile 6.12; Microsoft ZuneHD 4.3)","Mozilla/5.0 (SymbianOS/9.1; U; de) AppleWebKit/413 (KHTML, like Gecko) Safari/413","Mozilla/5.0 (Macintosh; U; Intel Mac OS X; en-US) AppleWebKit/528.16 (KHTML, like Gecko, Safari/528.16) OmniWeb/v622.8.0.112941"],"company":"Ooba","country":"Chile","email":"aut@Leenti.mil","job":"Product Engineer","name":"Alan Stone","phone":"216-13-33"}
{"browsers":["Mozilla/5.0 (Linux; Android 4.4.2; SAMSUNG-SM-T537A Build/KOT49H) AppleWebKit/537.36 (KHTML like Gecko) Chrome/35.0.1916.141 Safari/537.36","Opera/10.61 (J2ME/MIDP; Opera Mini/5.1.21219/19.999; en-US; rv:1.9.3a5) WebKit/534.5 Presto/2.6.30","Mozilla/5.0 (Macintosh; Intel Mac OS X 10_8_2) AppleWebKit/537.4 (KHTML like Gecko) Chrome/22.0.1229.79 Safari/537.4","Mozilla/5.0 (X11; Linux i686; rv:20.0) Gecko/20100101 Firefox/20.0"],"company":"Rhynoodle","country":"Haiti","email":"uBurke@Meemm.mil","job":"Data Coordinator","name":"Shirley Hayes","phone":"9-738-565-59-93"}
{"browsers":["Mozilla/5.0 (X11; U; Linux i686; en-US; rv:1.6) Gecko/20040614 Firefox/0.8","HTC-ST7377/1.59.502.3 (67150) Opera/9.50 (Windows NT 5.1; U; en) UP.Link/6.3.1.17.0","Opera/9.64 (X11; Linux i686; U; Linux Mint; nb) Presto/2.1.1","Mozilla/5.0 (Windows; U; Windows NT 5.1; tr; rv:1.9.2.8) Gecko/20100722 Firefox/3.6.8 ( .NET CLR 3.5.30729; .NET4.0E)"],"company":"Zoovu","country":"Palau","email":"RobertSimmons@Zooveo.gov","job":"Systems Administrator #{N}","name":"Shirley Harper","phone":"482-89-96"}
{"browsers":["msnbot/0.11 ( http://search.msn.com/msnbot.htm)","Googlebot/2.1 ( http://www.googlebot.com/bot.html)","Mozilla/5.0 (Windows; U; Windows NT 6.0; en-US; rv:1.9.1.6) Gecko/20091201 Firefox/3.5.6 GTB5","Lynx/2.8.7dev.4 libwww-FM/2.14 SSL-MM/1.4.1 OpenSSL/0.9.8d"],"company":"Gabvine","country":"Martinique","email":"aWagner@Thoughtsphere.edu","job":"Actuary","name":"Juan Grant","phone":"167-86-80"}
{"browsers":["Mozilla/4.0 (compatible; GoogleToolbar 4.0.1019.5266-big; Windows XP 5.1; MSIE 6.0.2900.2180)","Mozilla/5.0 (Linux; U; Android 4.3; en-us; sdk Build/MR1) AppleWebKit/536.23 (KHTML, like Gecko) Version/4.3 Mobile Safari/536.23","Midori/0.1.10 (X11; Linux i686; U; en-us) WebKit/(531).(2)","Mozilla/5.0 (X11; U; Linux x86_64; en-US; rv:1.9.0.3) Gecko/2008092814 (Debian-3.0.1-1)"],"company":"Innotype","country":"Montenegro","email":"CynthiaBurton@Jaxnation.biz","job":"Tax Accountant","name":"Edward Weaver","phone":"4-467-807-88-17"}
{"browsers":["Mozilla/5.0 (SymbianOS/9.1; U; en-us) AppleWebKit/413 (KHTML, like Gecko) Safari/413 es70","Mozilla/5.0 (X11; Linux i686) AppleWebKit/534.34 (KHTML, like Gecko) QupZilla/1.2.0 Safari/534.34","Mozilla/5.0 (Linux; U; Android 3.0; en-us; Xoom Build/HRI39) AppleWebKit/525.10  (KHTML, like Gecko) Version/3.0.4 Mobile Safari/523.12.2","Mozilla/5.0 (Linux; U; Android 2.2; en-ca; GT-P1000M Build/FROYO) AppleWebKit/533.1 (KHTML, like Gecko) Version/4.0 Mobile Safari/533.1"],"company":"Skiptube","country":"New Zealand","email":"RyanMontgomery@Quatz.edu","job":"Recruiting Manager","name":"Shirley Thomas","phone":"805-17-21"}
{"browsers":["Mozilla/5.0 (Linux; Android 4.4.2; LG-V410 Build/KOT49I.V41010d) AppleWebKit/537.36 (KHTML, like Gecko) Chrome/30.0.1599.103 Safari/537.36","Mozilla/5.0 (compatible; MSIE 9.0; Windows NT 6.2; Trident/5.0)","Mozilla/4.0 (compatible; MSIE 6.0; Windows CE; IEMobile 7.11) Sprint:PPC6800","Mozilla/5.0 (Windows NT 5.2; rv:10.0.1) Gecko/20100101 Firefox/10.0.1 SeaMonkey/2.7.1"],"company":"Vimbo","country":"Tonga","email":"5Howard@Skivee.info","job":"Quality Engineer","name":"Ashley Sullivan","phone":"716-67-47"}
