{"browsers":["Mozilla/5.0 (Macintosh; U; Intel Mac OS X 10_6_2; en-us) AppleWebKit/531.21.8 (KHTML, like Gecko) Version/4.0.4 Safari/531.21.10","Mozilla/5.0 (iPod; U; CPU iPhone OS 6_1 like Mac OS X; en-HK) AppleWebKit/534.35 (KHTML, like Gecko) Chrome/11.0.696.65 Safari/534.35 Puffin/3.9174IP Mobile","Mozilla/5.0 (iPad; U; CPU OS 4_2_1 like Mac OS X; ja-jp) AppleWebKit/533.17.9 (KHTML, like Gecko) Version/5.0.2 Mobile/8C148 Safari/6533.18.5","Mozilla/5.0 (Windows NT 6.1; WOW64) AppleWebKit/537.36 (KHTML, like Gecko) Chrome/44.0.2403.155 Safari/537.36 OPR/31.0.1889.174"],"company":"Cogibox","country":"Belize","email":"CraigJohnston@Vinte.edu","job":"Junior Executive","name":"Deborah Mason","phone":"9-255-546-91-07"}
{"browsers":["Mozilla/5.0 (Linux; Android 4.0.4; BNTV400 Build/IMM76L) AppleWebKit/537.36 (KHTML, like Gecko) Chrome/42.0.2311.111 Safari/537.36","Opera/10.61 (J2ME/MIDP; Opera Mini/5.1.21219/19.999; en-US; rv:1.9.3a5) WebKit/534.5 Presto/2.6.30","Mozilla/5.0 (Macintosh; Intel Mac OS X 10_10_5) AppleWebKit/537.36 (KHTML, like Gecko) Chrome/55.0.2859.0 Safari/537.36","Mozilla/4.0 (compatible; MSIE 6.0; Windows CE; IEMobile 6.12; Microsoft ZuneHD 4.3)"],"company":"Linkbuzz","country":"India","email":"nemo@Divanoodle.biz","job":"Software Test Engineer #{N}","name":"Sarah Nguyen","phone":"904-35-74"}
{"browsers":["Mozilla/5.0 (Windows; U; Windows NT 6.1; en-US) AppleWebKit/533.19.4 (KHTML, like Gecko) Version/5.0.2 Safari/533.18.5","MOTORIZR-Z8/46.00.00 Mozilla/4.0 (compatible; MSIE 6.0; Symbian OS; 356) Opera 8.65 [it] UP.Link/6.3.0.0.0","Mozilla/5.0 (Macintosh; U; PPC Mac OS X; en) AppleWebKit/418.8 (KHTML, like Gecko) Safari/419.3","Mozilla/5.0 (Windows NT 6.1; WOW64) AppleWebKit/537.36 (KHTML, like Gecko) Chrome/33.0.1750.154 Safari/537.36 OPR/20.0.1387.91"],"company":"Realmix","country":"Vatican City State (Holy See)","email":"rerum_assumenda@Npath.info","job":"Engineer #{N}","name":"Christopher Cox","phone":"2-232-283-93-39"}
{"browsers":["FeedFetcher-Google; ( http://www.google.com/feedfetcher.html)","Web Downloader/6.9","Opera/9.80 (Android; Opera Mini/7.5.33361/31.1543; U; en) Presto/2.8.119 Version/11.1010","BlackBerry9700/5.0.0.351 Profile/MIDP-2.1 Configuration/CLDC-1.1 VendorID/123"],"company":"Latz","country":"Iran","email":"ipsum_esse_voluptate@Yata.edu","job":"Sales Associate","name":"Karen Alvarez","phone":"465-74-27"}
{"browsers":["CSSCheck/1.2.2","Mozilla/5.0 (Windows NT 6.1) AppleWebKit/537.36 (KHTML, like Gecko) Chrome/28.0.1500.29 Safari/537.36 OPR/15.0.1147.24 (Edition Next)","Googlebot-Video/1.0","Mozilla/5.0 (X11; Linux 3.8-6.dmz.1-liquorix-686) KHTML/4.8.4 (like Gecko) Konqueror/4.8"],"company":"LiveZ","country":"Macau","email":"1Fisher@Twitterbridge.org","job":"Assistant Media Planner","name":"Jeremy Rose","phone":"815-99-21"}
{"browsers":["Mozilla/5.0 (Windows Phone 8.1; ARM; Trident/7.0; Touch; rv:11.0; IEMobile/11.0; NOKIA; Lumia 530) like Gecko","Mozilla/5.0 (X11; Linux i686; rv:10.0.1) Gecko/20100101 Firefox/10.0.1 SeaMonkey/2.7.1","Opera/9.5 (Microsoft Windows; PPC; Opera Mobi; U) SonyEricssonX1i/R2AA Profile/MIDP-2.0 Configuration/CLDC-1.1","Midori/0.1.10 (X11; Linux i686; U; en-us) WebKit/(531).(2)"],"company":"Devpulse","country":"Palau","email":"AngelaJohnson@Thoughtblab.net","job":"Help Desk Operator","name":"Donald Bennett","phone":"954-40-59"}
{"browsers":["Mozilla/5.0 (iPhone; CPU iPhone OS 9_2 like Mac OS X) AppleWebKit/601.1.46 (KHTML, like Gecko) Version/9.0 Mobile/13C75 Safari/601.1","Mozilla/5.0 (Macintosh; Intel Mac OS X 10.12; rv:49.0) Gecko/20100101 Firefox/49.0","portalmmm/2.0 N410i(c20;TB)","Mozilla/5.0 (X11; U; Linux ppc; en-US; rv:1.8.1.13) Gecko/20080313 Iceape/1.1.9 (Debian-1.1.9-5)"],"company":"Photojam","country":"China","email":"TerryBurns@Demimbu.mil","job":"Product Engineer","name":"Christina Carroll","phone":"783-61-04"}
{"browsers":["Mozilla/5.0 (SymbianOS/9.2; U; Series60/3.1 NokiaE90-1/07.24.0.3; Profile/MIDP-2.0 Configuration/CLDC-1.1 ) AppleWebKit/413 (KHTML, like Gecko) Safari/413 UP.Link/6.2.3.18.0","AdsBot-Google ( http://www.google.com/adsbot.html)","Mozilla/5.0 (compatible; Exabot/3.0;  http://www.exabot.com/go/robot)","Bloglines/3.1 (http://www.bloglines.com)"],"company":"Twimbo","country":"Montserrat","email":"consequatur_aut_nihil@Linklinks.mil","job":"Chief Design Engineer","name":"Lisa Grant","phone":"742-70-04"}
{"browsers":["CSSCheck/1.2.2","Mozilla/5.0 (SymbianOS/9.1; U; en-us) AppleWebKit/413 (KHTML, like Gecko) Safari/413 es70","Mozilla/2.0 (compatible; Ask Jeeves/Teoma)","Mozilla/5.0 (X11; Linux x86_64) AppleWebKit/537.4 (KHTML like Gecko) Chrome/22.0.1229.56 Safari/537.4"],"company":"Realbuzz","country":"Russia","email":"JerryMills@Izio.org","job":"Recruiter","name":"Stephen Harvey","phone":"585-04-74"}
{"browsers":["Mozilla/5.0 (Linux; Android 6.0.1; SM-G900H Build/MMB29K) AppleWebKit/537.36 (KHTML, like Gecko) Chrome/52.0.2743.98 Mobile Safari/537.36","Mozilla/5.0 (Macintosh; U; Intel Mac OS X 10_5_7;en-us) AppleWebKit/530.17 (KHTML, like Gecko) Version/4.0 Safari/530.17","Mozilla/5.0 (SymbianOS/9.2; U; Series60/3.1 NokiaE90-1/07.24.0.3; Profile/MIDP-2.0 Configuration/CLDC-1.1 ) AppleWebKit/413 (KHTML, like Gecko) Safari/413 UP.Link/6.2.3.18.0","Mozilla/4.0 (compatible; MSIE 7.0; Windows Phone OS 7.0; Trident/3.1; IEMobile/7.0) Asus;Galaxy6"],"company":"Kaymbo","country":"Switzerland","email":"JonathanBurns@Roombo.info","job":"Quality Control Specialist","name":"Gary Rogers","phone":"613-65-68"}
{"browsers":["Mozilla/5.0 (Windows NT 6.2; WOW64) AppleWebKit/537.36 (KHTML, like Gecko) Chrome/41.0.2272.76 Safari/537.36 OPR/28.0.1750.40","Mozilla/5.0 (Windows NT 10.0; Win64; x64) AppleWebKit/537.36 (KHTML, like Gecko) Chrome/55.0.2869.0 Safari/537.36","Mozilla/5.0 (compatible; Konqueror/4.4; Linux 2.6.32-22-generic; X11; en_US) KHTML/4.4.3 (like Gecko) Kubuntu","Mozilla/5.0 (X11; Linux i686) AppleWebKit/538.1 (KHTML, like Gecko) QupZilla/1.8.6 Safari/538.1"],"company":"Demizz","country":"Kiribati","email":"GeraldFlores@Podcat.net","job":"Staff Accountant #{N}","name":"Ruth Ramirez","phone":"407-88-03"}
{"browsers":["Mozilla/4.0 (compatible; MSIE 7.0; Windows NT 6.0; Trident/4.0)","Mozilla/5.0 (X11; U; Linux i686; en-US; rv:1.8.1) Gecko/20061024 Firefox/2.0 (Swiftfox)","Opera/9.0 (Macintosh; PPC Mac OS X; U; en)","Mozilla/5.0 (Linux; U; Android 2.0; en-us; Droid Build/ESD20) AppleWebKit/530.17 (KHTML, like Gecko) Version/4.0 Mobile Safari/530.17"],"company":"Quimba","country":"Austria","email":"quis_porro_quidem@Tavu.edu","job":"Programmer #{N}","name":"Carol Carroll","phone":"4-603-936-34-87"}
{"browsers":["Mozilla/5.0 (Windows NT 6.2; ARM; Trident/7.0; Touch; rv:11.0; WPDesktop; NOKIA; Lumia 635) like Gecko","Opera/7.50 (Windows XP; U)","Mozilla/5.0 (X11; FreeBSD amd64) AppleWebKit/537.36 (KHTML, like Gecko) Chrome/35.0.1916.153 Safari/537.36","Mozilla/5.0 (BeOS; U; BeOS BePC; en-US; rv:1.9a1) Gecko/20060702 SeaMonkey/1.5a"],"company":"Skimia","country":"Maldives","email":"quasi@Jabberbean.biz","job":"Developer #{N}","name":"Ruby Butler","phone":"1-353-667-39-38"}
{"browsers":["Mozilla/5.0 (OS/2; Warp 4.5; rv:38.0) Gecko/20100101 Firefox/38.0","Mozilla/5.0 (iPhone; CPU iPhone OS 6_0 like Mac OS X) AppleWebKit/536.26 (KHTML, like Gecko) Version/6.0 Mobile/10A403 Safari/8536.25","Mozilla/5.0 Slackware/13.37 (X11; U; Linux x86_64; en-US) AppleWebKit/535.1 (KHTML, like Gecko) Chrome/13.0.782.41","Mozilla/5.0 (X11; U; Linux x86_64; en-US) AppleWebKit/537.36 (KHTML, like Gecko) Chrome/30.0.1599.114 Safari/537.36 Puffin/4.5.0IT"],"company":"Devcast","country":"Switzerland","email":"facere@Midel.edu","job":"Structural Analysis Engineer","name":"Patrick Hughes","phone":"535-67-11"}
{"browsers":["EmailWolf 1.00","Mozilla/5.0 (iPhone; U; CPU iPhone OS 4_2_1 like Mac OS X; da-dk) AppleWebKit/533.17.9 (KHTML, like Gecko) Version/5.0.2 Mobile/8C148 Safari/6533.18.5","Mozilla/4.0 (compatible; GoogleToolbar 4.0.1019.5266-big; Windows XP 5.1; MSIE 6.0.2900.2180)","Mozilla/5.0 (Symbian/3; Series60/5.2 NokiaX7-00/021.004; Profile/MIDP-2.1 Configuration/CLDC-1.1 ) AppleWebKit/533.4 (KHTML, like Gecko) NokiaBrowser/7.3.1.21 Mobile Safari/533.4 3gpp-gba"],"company":"Oloo","country":"Germany","email":"8Johnston@Nlounge.net","job":"General Manager","name":"Helen Cooper","phone":"984-12-45"}
{"browsers":["Mozilla/5.0 (Macintosh; U; Intel Mac OS X 10_6_2; en-us) AppleWebKit/531.21.8 (KHTML, like Gecko) Version/4.0.4 Safari/531.21.10","Mozilla/5.0 (Linux; U; Android 1.5; de-de; HTC Magic Build/PLAT-RC33) AppleWebKit/528.5  (KHTML, like Gecko) Version/3.1.2 Mobile Safari/525.20.1 FirePHP/0.3","Mozilla/5.0 (Linux; U; Android 1.5; de-de; Galaxy Build/CUPCAKE) AppleWebKit/528.5  (KHTML, like Gecko) Version/3.1.2 Mobile Safari/525.20.1","Mozilla/5.0 (Linux; Android 4.4.4; XT1032 Build/KXB21.14-L1.61) AppleWebKit/537.36 (KHTML, like Gecko) Chrome/45.0.2454.94 Mobile Safari/537.36"],"company":"Quamba","country":"Gabon","email":"nostrum_vero@Oyondu.org","job":"Account Representative #{N}","name":"Norma Owens","phone":"2-615-745-01-64"}
{"browsers":["Mozilla/4.0 (compatible; MSIE 7.0; Windows Phone OS 7.0; Trident/3.1; IEMobile/7.0)","Mozilla/5.0 (Android 4.2; rv:19.0) Gecko/20121129 Firefox/19.0","Mozilla/5.0 (OS/2; Warp 4.5; rv:24.0) Gecko/20100101 Firefox/24.0 SeaMonkey/2.21","Mozilla/5.0 (X11; Linux i686) AppleWebKit/537.36 (KHTML, like Gecko) Chrome/28.0.1478.0 Safari/537.36"],"company":"Myworks","country":"Guatemala","email":"DianaFox@Dabshots.com","job":"Statistician #{N}","name":"Jose Lawson","phone":"685-01-99"}
{"browsers":["Mozilla/4.0 (compatible; MSIE 6.0; Windows CE; IEMobile 6.12; Microsoft ZuneHD 4.3)","SonyEricssonK310iv/R4DA Browser/NetFront/3.3 Profile/MIDP-2.0 Configuration/CLDC-1.1 UP.Link/6.3.1.13.0","Mozilla/5.0 (Android; Mobile; rv:35.0) Gecko/35.0 Firefox/35.0","Mozilla/5.0 (iPhone; U; CPU iPhone OS 4_0 like Mac OS X; en-us) AppleWebKit/532.9 (KHTML, like Gecko) Version/4.0.5 Mobile/8A293 Safari/531.22.7"],"company":"Layo","country":"Congo, Democratic Republic of","email":"9Evans@Tagpad.org","job":"Internal Auditor","name":"Matthew Simmons","phone":"744-35-26"}
{"browsers":["Mozilla/5.0 (Macintosh; Intel Mac OS X 10.8; rv:16.0) Gecko/20120813 Firefox/16.0","Mozilla/4.0 (compatible; MSIE 6.0; Windows CE; IEMobile 7.11) Sprint:PPC6800","Mozilla/5.0 (Macintosh; Intel Mac OS X 10_7_5) AppleWebKit/536.26.17 (KHTML like Gecko) Version/6.0.2 Safari/536.26.17","Mozilla/5.0 (Linux; Android 4.4.2; SAMSUNG-SM-T537A Build/KOT49H) AppleWebKit/537.36 (KHTML like Gecko) Chrome/35.0.1916.141 Safari/537.36"],"company":"Shuffledrive","country":"Turks and Caicos Islands","email":"TammyHunter@Zoomlounge.mil","job":"Legal Assistant","name":"Evelyn West","phone":"8-320-377-11-56"}
{"browsers":["iTunes/9.0.2 (Windows; N)","Mozilla/5.0 (Android; Linux armv7l; rv:2.0.1) Gecko/20100101 Firefox/4.0.1 Fennec/2.0.1","Mozilla/4.0 (compatible; Dillo 3.0)","Mozilla/5.0 (Macintosh; Intel Mac OS X 10.6; rv:2.0.1) Gecko/20100101 Firefox/4.0.1 Camino/2.2.1"],"company":"Oyoba","country":"Finland","email":"vHunt@Jabbertype.info","job":"Assistant Media Planner","name":"Clarence Butler","phone":"2-061-385-35-93"}
