{"browsers":["Download Demon/3.5.0.11","SonyEricssonW580i/R6BC Browser/NetFront/3.3 Profile/MIDP-2.0 Configuration/CLDC-1.1","Mozilla/5.0 (Macintosh; Intel Mac OS X 10_10_1) AppleWebKit/537.36 (KHTML, like Gecko) Chrome/41.0.2227.1 Safari/537.36","Nokia7250/1.0 (3.14) Profile/MIDP-1.0 Configuration/CLDC-1.0"],"company":"Brainverse","country":"Poland","email":"alias@Bubblebox.gov","job":"Tax Accountant","name":"Kimberly Dean","phone":"2-764-100-63-49"}
{"browsers":["LG-LX550 AU-MIC-LX550/2.0 MMP/2.0 Profile/MIDP-2.0 Configuration/CLDC-1.1","Mozilla/5.0 (SymbianOS/9.1; U; en-us) AppleWebKit/413 (KHTML, like Gecko) Safari/413 es65","Mozilla/5.0 (X11; Linux x86_64) AppleWebKit/537.36 (KHTML, like Gecko) Chrome/55.0.2876.0 Safari/537.36","FAST-WebCrawler/3.8 (crawler at trd dot overture dot com; http://www.alltheweb.com/help/webmaster/crawler)"],"company":"Viva","country":"Bosnia and Herzegovina","email":"sed@Buzzster.gov","job":"Programmer Analyst #{N}","name":"Justin Peters","phone":"074-44-75"}
{"browsers":["Mozilla/5.0 (Windows; U; Windows NT 6.0; en-GB; rv:1.9.0.11) Gecko/2009060215 Firefox/3.0.11 (.NET CLR 3.5.30729)","Mozilla/5.0 (X11; Linux i686; rv:2.0.1) Gecko/20100101 Firefox/4.0.1","Mozilla/5.0 (compatible; MSIE 9.0; Windows NT 6.2; Trident/5.0)","Avant Browser/1.2.789rel1 (http://www.avantbrowser.com)"],"company":"Photolist","country":"Yemen","email":"SaraBurton@Agimba.mil","job":"Tax Accountant","name":"Patrick Payne","phone":"9-920-398-89-47"}
{"browsers":["Mozilla/5.0 (OS/2; Warp 4.5; rv:24.0) Gecko/20100101 Firefox/24.0","BlackBerry7520/4.0.0 Profile/MIDP-2.0 Configuration/CLDC-1.1 UP.Browser/5.0.3.3 UP.Link/5.1.2.12 (Google WAP Proxy/1.0)","Mozilla/4.0 (compatible; MSIE 6.0; Windows 98; PalmSource/hspr-H102; Blazer/4.0) 16;320x320","BlackBerry9000/4.6.0.167 Profile/MIDP-2.0 Configuration/CLDC-1.1 VendorID/102"],"company":"Gabvine","country":"Yemen","email":"tRussell@Eamia.name","job":"Geologist #{N}","name":"Rachel Daniels","phone":"0-424-650-14-23"}
{"browsers":["Mozilla/5.0 (Linux; U; Android 3.0.1; fr-fr; A500 Build/HRI66) AppleWebKit/534.13 (KHTML, like Gecko) Version/4.0 Safari/534.13","Mozilla/5.0 (X11; Linux i686; rv:2.0.1) Gecko/20100101 Firefox/4.0.1","Mozilla/5.0 (X11; Ubuntu; Linux x86_64; rv:35.0) Gecko/20100101 Firefox/35.0","Mozilla/5.0 (Linux; Android 4.4.2; SAMSUNG-SM-T537A Build/KOT49H) AppleWebKit/537.36 (KHTML like Gecko) Chrome/35.0.1916.141 Safari/537.36"],"company":"Edgeify","country":"Dominican Republic","email":"0Kelly@Bluezoom.com","job":"Librarian","name":"Dennis Martin","phone":"014-04-76"}
{"browsers":["Mozilla/5.0 (Linux; U; Android 2.2; en-us; SCH-I800 Build/FROYO) AppleWebKit/533.1 (KHTML, like Gecko) Version/4.0 Mobile Safari/533.1","Mozilla/5.0 (Windows NT 10.0) AppleWebKit/537.36 (KHTML, like Gecko) Chrome/42.0.2311.135 Safari/537.36 Edge/12.10240","Mozilla/5.0 (X11; U; Linux i686; en-US; rv:1.9.0.11) Gecko/2009060309 Ubuntu/9.10 (karmic) Firefox/3.0.11","Mozilla/5.0 (X11; Linux i686; rv:32.0) Gecko/20100101 Firefox/32.0"],"company":"Devshare","country":"Iran","email":"DouglasRose@Shuffledrive.com","job":"Senior Editor","name":"Howard Rodriguez","phone":"9-575-625-39-62"}
{"browsers":["Mozilla/5.0 (iPhone; CPU iPhone OS 9_2 like Mac OS X) AppleWebKit/601.1.46 (KHTML, like Gecko) Version/9.0 Mobile/13C75 Safari/601.1","msnbot-media/1.1 ( http://search.msn.com/msnbot.htm)","Mozilla/5.0 (X11; Linux 3.8-6.dmz.1-liquorix-686) KHTML/4.8.4 (like Gecko) Konqueror/4.8","Adobe Application Manager 2.0"],"company":"Meemm","country":"Eritrea","email":"earum@Zoozzy.mil","job":"Pharmacist","name":"Diane Robinson","phone":"0-568-222-54-61"}
{"browsers":["Mozilla/5.0 (Linux; U; Android 1.5; en-us; T-Mobile G1 Build/CRB43) AppleWebKit/528.5  (KHTML, like Gecko) Version/3.1.2 Mobile Safari 525.20.1","Mozilla/5.0 (webOS/1.3; U; en-US) AppleWebKit/525.27.1 (KHTML, like Gecko) Version/1.0 Safari/525.27.1 Desktop/1.0","BlackBerry8320/4.2.2 Profile/MIDP-2.0 Configuration/CLDC-1.1 VendorID/100","Mozilla/5.0 (iPad; U; CPU OS 3_2 like Mac OS X; en-us) AppleWebKit/531.21.10 (KHTML, like Gecko) Version/4.0.4 Mobile/7B334b Safari/531.21.10"],"company":"Abata","country":"Georgia","email":"PatriciaWard@Skinte.info","job":"Cost Accountant","name":"Gregory Hill","phone":"0-313-181-60-87"}
{"browsers":["Mozilla/5.0 (Windows NT 10.0; WOW64; rv:40.0) Gecko/20100101 Firefox/40.0","BlackBerry9530/4.7.0.167 Profile/MIDP-2.0 Configuration/CLDC-1.1 VendorID/102 UP.Link/6.3.1.20.0","nook browser/1.0","Mozilla/5.0 (Linux; Android 4.4.2; LG-V410 Build/KOT49I.V41010d) AppleWebKit/537.36 (KHTML, like Gecko) Chrome/30.0.1599.103 Safari/537.36"],"company":"Latz","country":"Uganda","email":"molestias_qui_sit@Blogtag.com","job":"Legal Assistant","name":"Rachel Thomas","phone":"548-64-15"}
{"browsers":["Mozilla/5.0 (Windows NT 6.1; rv:21.0) Gecko/20130401 Firefox/21.0","Mozilla/5.0 (iPhone; U; CPU like Mac OS X; en) AppleWebKit/420  (KHTML, like Gecko) Version/3.0 Mobile/1A543a Safari/419.3","Mozilla/5.0 (X11; FreeBSD amd64) AppleWebKit/537.36 (KHTML, like Gecko) Chrome/35.0.1916.153 Safari/537.36","Mozilla/4.0 (compatible; MSIE 6.0; Windows CE; IEMobile 7.11)"],"company":"Voomm","country":"Nigeria","email":"voluptas_non_animi@Realpoint.biz","job":"Civil Engineer","name":"Phyllis Pierce","phone":"478-48-82"}
{"browsers":["Opera/9.80 (Macintosh; Intel Mac OS X 10.4.11; U; en) Presto/2.7.62 Version/11.00","Mozilla/5.0 (WindowsCE 6.0; rv:2.0.1) Gecko/20100101 Firefox/4.0.1","Mozilla/5.0 (X11; Linux x86_64) AppleWebKit/537.36 (KHTML, like Gecko) Chrome/45.0.2454.85 Safari/537.36 OPR/32.0.1948.25","Mozilla/5.0 (Linux; U; Android 2.0; en-us; Droid Build/ESD20) AppleWebKit/530.17 (KHTML, like Gecko) Version/4.0 Mobile Safari/530.17"],"company":"BlogXS","country":"Indonesia","email":"AdamReed@Skynoodle.biz","job":"Assistant Manager","name":"Aaron Myers","phone":"689-40-92"}
{"browsers":["Mozilla/5.0 (Linux; U; Android 2.1; en-us; Nexus One Build/ERD62) AppleWebKit/530.17 (KHTML, like Gecko) Version/4.0 Mobile Safari/530.17","Mozilla/5.0 (X11; Linux i686) AppleWebKit/538.1 (KHTML, like Gecko) QupZilla/1.8.6 Safari/538.1","WebCopier v4.6","Mozilla/5.0 (compatible; MSIE 10.0; Windows Phone 8.0; Trident/6.0; IEMobile/10.0; ARM; Touch)"],"company":"Muxo","country":"Cuba","email":"DavidSanchez@Npath.org","job":"Account Representative #{N}","name":"Jennifer Boyd","phone":"823-26-17"}
{"browsers":["Mozilla/5.0 (Linux; Android 6.0.1; SM-G900H Build/MMB29K) AppleWebKit/537.36 (KHTML, like Gecko) Chrome/52.0.2743.98 Mobile Safari/537.36","Mozilla/5.0 (Windows Phone 8.1; ARM; Trident/7.0; Touch; rv:11.0; IEMobile/11.0; NOKIA; Lumia 920) like Gecko","Mozilla/5.0 (Windows Phone 8.1; ARM; Trident/7.0; Touch; rv:11.0; IEMobile/11.0; NOKIA; Lumia 630) like Gecko","Mozilla/5.0 (Macintosh; Intel Mac OS X 10_8_0) AppleWebKit/536.3 (KHTML, like Gecko) Chrome/19.0.1063.0 Safari/536.3"],"company":"Avamm","country":"Belgium","email":"zRamos@Eidel.net","job":"VP Sales","name":"Martha Long","phone":"2-613-266-04-18"}
{"browsers":["Mozilla/5.0 (Windows NT 6.2; WOW64) AppleWebKit/537.36 (KHTML, like Gecko) Chrome/41.0.2272.76 Safari/537.36 OPR/28.0.1750.40","Mozilla/5.0 (Linux; U; Android 2.2; en-us; Sprint APA9292KT Build/FRF91) AppleWebKit/533.1 (KHTML, like Gecko) Version/4.0 Mobile Safari/533.1","Mozilla/5.0 (hp-tablet; Linux; hpwOS/3.0.2; U; de-DE) AppleWebKit/534.6 (KHTML, like Gecko) wOSBrowser/234.40.1 Safari/534.6 TouchPad/1.0","Mozilla/5.0 (Macintosh; U; Intel Mac OS X 10_5_7;en-us) AppleWebKit/530.17 (KHTML, like Gecko) Version/4.0 Safari/530.17"],"company":"Mita","country":"Kuwait","email":"AmyWelch@Skipfire.biz","job":"Sales Associate","name":"Richard Welch","phone":"135-18-60"}
{"browsers":["Mozilla/5.0 (Macintosh; U; Intel Mac OS X 10_6_4; en-US) AppleWebKit/534.3 (KHTML, like Gecko) Chrome/6.0.464.0 Safari/534.3","Mozilla/5.0 (Linux; Android 6.0.1; SM-G900H Build/MMB29K) AppleWebKit/537.36 (KHTML, like Gecko) Chrome/52.0.2743.98 Mobile Safari/537.36","Mozilla/4.0 (compatible; MSIE 5.5; Windows 98; Win 9x 4.90)","Mozilla/5.0 (Windows Phone 10.0; Android 4.2.1; DEVICE INFO) AppleWebKit/537.36 (KHTML, like Gecko) Chrome/39.0.2171.71 Mobile Safari/537.36 Edge/12.0"],"company":"Dazzlesphere","country":"Timor-Leste","email":"ChristinaTurner@Quaxo.gov","job":"Product Engineer","name":"Amanda Chavez","phone":"969-02-40"}
{"browsers":["nook browser/1.0","ELinks (0.4.3; NetBSD 3.0.2PATCH sparc64; 141x19)","Mozilla/5.0 (iPhone; U; CPU iPhone OS 5_1_1 like Mac OS X; da-dk) AppleWebKit/534.46.0 (KHTML, like Gecko) CriOS/19.0.1084.60 Mobile/9B206 Safari/7534.48.3","Gulper Web Bot 0.2.4 (www.ecsl.cs.sunysb.edu/~maxim/cgi-bin/Link/GulperBot)"],"company":"Rhycero","country":"Paraguay","email":"doloremque_quam_rerum@Skippad.info","job":"Sales Representative","name":"Daniel Alvarez","phone":"509-69-95"}
{"browsers":["Mozilla/5.0 (iPhone; U; CPU iPhone OS 4_2_1 like Mac OS X; da-dk) AppleWebKit/533.17.9 (KHTML, like Gecko) Version/5.0.2 Mobile/8C148 Safari/6533.18.5","Mozilla/5.0 (Macintosh; U; Intel Mac OS X 10.5; en-US; rv:1.9.1) Gecko/20090624 Firefox/3.5","Mozilla/5.0 (SymbianOS/9.2; U; Series60/3.1 NokiaE90-1/07.24.0.3; Profile/MIDP-2.0 Configuration/CLDC-1.1 ) AppleWebKit/413 (KHTML, like Gecko) Safari/413 UP.Link/6.2.3.18.0","Mozilla/5.0 (X11; Linux x86_64) AppleWebKit/537.36 (KHTML, like Gecko) Chrome/33.0.1750.166 Safari/537.36 OPR/20.0.1396.73172"],"company":"Eadel","country":"Grenada","email":"CharlesDaniels@Photobean.info","job":"Research Associate","name":"George Stevens","phone":"6-434-300-40-46"}
{"browsers":["Mozilla/4.0 (compatible; MSIE 7.0; Windows NT 6.0)","HTC_Dream Mozilla/5.0 (Linux; U; Android 1.5; en-ca; Build/CUPCAKE) AppleWebKit/528.5  (KHTML, like Gecko) Version/3.1.2 Mobile Safari/525.20.1","Mozilla/5.0 (Macintosh; Intel Mac OS X 10_10_1) AppleWebKit/537.36 (KHTML, like Gecko) Chrome/41.0.2227.1 Safari/537.36","Lynx/2.8.7dev.4 libwww-FM/2.14 SSL-MM/1.4.1 OpenSSL/0.9.8d"],"company":"Quire","country":"Paraguay","email":"ea_ut@Browseblab.name","job":"Safety Technician #{N}","name":"Ann Bailey","phone":"1-369-054-56-60"}
{"browsers":["Mozilla/5.0 Slackware/13.37 (X11; U; Linux x86_64; en-US) AppleWebKit/535.1 (KHTML, like Gecko) Chrome/13.0.782.41","Mozilla/5.0 (Linux; U; Android 3.0.1; en-us; GT-P7100 Build/HRI83) AppleWebkit/534.13 (KHTML, like Gecko) Version/4.0 Safari/534.13","Opera/9.80 (S60; SymbOS; Opera Mobi/499; U; ru) Presto/2.4.18 Version/10.00","Mozilla/5.0 (Windows NT 5.1; rv:38.0) Gecko/20100101 Firefox/38.0 SeaMonkey/2.35"],"company":"Centizu","country":"Ascension Island","email":"JamesHughes@Skyvu.com","job":"Budget/Accounting Analyst #{N}","name":"Julie Cruz","phone":"478-35-34"}
{"browsers":["Mozilla/5.0 (X11; Linux x86_64) AppleWebKit/537.32 (KHTML, like Gecko) Chromium/25.0.1349.2 Chrome/25.0.1349.2 Safari/537.32 Epiphany/3.8.2","Wget/1.9 cvs-stable (Red Hat modified)","Mozilla/3.0 (compatible; NetPositive/2.1.1; BeOS)","Mozilla/5.0 (X11; Linux 3.8-6.dmz.1-liquorix-686) KHTML/4.8.4 (like Gecko) Konqueror/4.8"],"company":"Topicware","country":"Austria","email":"KevinMorales@Zoonoodle.biz","job":"Occupational Therapist","name":"Lori Mccoy","phone":"0-525-756-02-15"}
